[
	{
		"_id": "a-50",
		"_parentId": "co-50",
		"_type": "article",
		"_classes": "banner_01",
		"title": "a-50",
		"displayTitle": "",
		"body": ""
	},
	{
		"_id": "a-100",
		"_parentId": "co-100",
		"_type": "article",
		"_classes": "banner_01",
		"title": "a-100",
		"displayTitle": "",
		"body": ""
	},
	{
		"_id": "a-150",
		"_parentId": "co-150",
		"_type": "article",
		"_classes": "banner_01",
		"title": "a-50",
		"displayTitle": "",
		"body": ""
	},
	{
		"_id": "a-200",
		"_parentId": "co-200",
		"_type": "article",
		"_classes": "banner_01",
		"title": "a-100",
		"displayTitle": "",
		"body": ""
	},
	{
		"_id": "a-250",
		"_parentId": "co-250",
		"_type": "article",
		"_classes": "banner_01",
		"title": "a-50",
		"displayTitle": "",
		"body": ""
	},
	{
		"_id": "a-300",
		"_parentId": "co-300",
		"_type": "article",
		"_classes": "banner_01",
		"title": "a-100",
		"displayTitle": "",
		"body": ""
	},
	{
		"_id": "a-350",
		"_parentId": "co-350",
		"_type": "article",
		"_classes": "banner_01",
		"title": "a-100",
		"displayTitle": "",
		"body": ""
	},
	{
		"_id": "a-400",
		"_parentId": "co-400",
		"_type": "article",
		"_classes": "banner_01",
		"title": "a-100",
		"displayTitle": "",
		"body": ""
	},
	{
		"_id": "a-450",
		"_parentId": "co-450",
		"_type": "article",
		"_classes": "banner_01",
		"title": "a-100",
		"displayTitle": "",
		"body": ""
	},
	{
		"_id": "a-500",
		"_parentId": "co-500",
		"_type": "article",
		"_classes": "banner_01",
		"title": "a-100",
		"displayTitle": "",
		"body": ""
	}
	
]
