[
    {
        "_id": "b-50",
        "_parentId": "a-50",
        "_type": "block",
        "_classes": "",
        "title": "b-50",
        "displayTitle": "",
        "body": "",
        "_trackingId": 1
    },
    {
        "_id": "b-55",
        "_parentId": "a-50",
        "_type": "block",
        "_classes": "",
        "title": "b-55",
        "displayTitle": "",
        "body": "",
        "_trackingId": 2
    },
    {
        "_id": "b-60",
        "_parentId": "a-50",
        "_type": "block",
        "_classes": "",
        "title": "b-55",
        "displayTitle": "",
        "body": "",
        "_trackingId": 3
    },
    {
        "_id": "b-65",
        "_parentId": "a-50",
        "_type": "block",
        "_classes": "",
        "title": "b-65",
        "displayTitle": "",
        "body": "",
        "_trackingId": 4
    },
    {
        "_id": "b-75",
        "_parentId": "a-50",
        "_type": "block",
        "_classes": "",
        "title": "b-75",
        "displayTitle": "",
        "body": "",
        "_trackingId": 5
    },
    {
        "_id": "b-100",
        "_parentId": "a-100",
        "_type": "block",
        "_classes": "",
        "title": "b-100",
        "displayTitle": "",
        "body": "",
        "_trackingId": 6
    },
    {
        "_id": "b-110",
        "_parentId": "a-100",
        "_type": "block",
        "_classes": "",
        "title": "b-110",
        "displayTitle": "",
        "body": "",
        "_trackingId": 7
    },
    {
        "_id": "b-120",
        "_parentId": "a-100",
        "_type": "block",
        "_classes": "",
        "title": "b-120",
        "displayTitle": "",
        "body": "",
        "_trackingId": 8
    },
    {
        "_id": "b-130",
        "_parentId": "a-100",
        "_type": "block",
        "_classes": "",
        "title": "b-130",
        "displayTitle": "",
        "body": "",
        "_trackingId": 9
    },
    {
        "_id": "b-140",
        "_parentId": "a-100",
        "_type": "block",
        "_classes": "",
        "title": "b-140",
        "displayTitle": "",
        "body": "",
        "_trackingId": 10
    },
    {
        "_id": "b-150",
        "_parentId": "a-150",
        "_type": "block",
        "_classes": "",
        "title": "b-150",
        "displayTitle": "",
        "body": "",
        "_trackingId": 11
    },
    {
        "_id": "b-155",
        "_parentId": "a-150",
        "_type": "block",
        "_classes": "",
        "title": "b-155",
        "displayTitle": "",
        "body": "",
        "_trackingId": 12
    },
    {
        "_id": "b-165",
        "_parentId": "a-150",
        "_type": "block",
        "_classes": "",
        "title": "b-165",
        "displayTitle": "",
        "body": "",
        "_trackingId": 13
    },
    {
        "_id": "b-170",
        "_parentId": "a-150",
        "_type": "block",
        "_classes": "",
        "title": "b-170",
        "displayTitle": "",
        "body": "",
        "_trackingId": 14
    },
    {
        "_id": "b-175",
        "_parentId": "a-150",
        "_type": "block",
        "_classes": "",
        "title": "b-175",
        "displayTitle": "",
        "body": "",
        "_trackingId": 15
    },
    {
        "_id": "b-200",
        "_parentId": "a-200",
        "_type": "block",
        "_classes": "",
        "title": "b-200",
        "displayTitle": "",
        "body": "",
        "_trackingId": 16
    },
    {
        "_id": "b-205",
        "_parentId": "a-200",
        "_type": "block",
        "_classes": "",
        "title": "b-205",
        "displayTitle": "",
        "body": "",
        "_trackingId": 17
    },
    {
        "_id": "b-210",
        "_parentId": "a-250",
        "_type": "block",
        "_classes": "",
        "title": "b-210",
        "displayTitle": "",
        "body": "",
        "_trackingId": 18
    },
    {
        "_id": "b-220",
        "_parentId": "a-250",
        "_type": "block",
        "_classes": "",
        "title": "b-220",
        "displayTitle": "",
        "body": "",
        "_trackingId": 19
    },
    {
        "_id": "b-225",
        "_parentId": "a-250",
        "_type": "block",
        "_classes": "",
        "title": "b-225",
        "displayTitle": "",
        "body": "",
        "_trackingId": 20
    },
    {
        "_id": "b-230",
        "_parentId": "a-250",
        "_type": "block",
        "_classes": "",
        "title": "b-230",
        "displayTitle": "",
        "body": "",
        "_trackingId": 21
    },
    {
        "_id": "b-235",
        "_parentId": "a-250",
        "_type": "block",
        "_classes": "",
        "title": "b-235",
        "displayTitle": "",
        "body": "",
        "_trackingId": 22
    },
    {
        "_id": "b-240",
        "_parentId": "a-250",
        "_type": "block",
        "_classes": "",
        "title": "b-240",
        "displayTitle": "",
        "body": "",
        "_trackingId": 23
    },
    {
        "_id": "b-245",
        "_parentId": "a-250",
        "_type": "block",
        "_classes": "",
        "title": "b-245",
        "displayTitle": "",
        "body": "",
        "_trackingId": 24
    },
    {
        "_id": "b-250",
        "_parentId": "a-250",
        "_type": "block",
        "_classes": "",
        "title": "b-250",
        "displayTitle": "",
        "body": "",
        "_trackingId": 25
    },
    {
        "_id": "b-255",
        "_parentId": "a-250",
        "_type": "block",
        "_classes": "",
        "title": "b-255",
        "displayTitle": "",
        "body": "",
        "_trackingId": 26
    },
    {
        "_id": "b-260",
        "_parentId": "a-250",
        "_type": "block",
        "_classes": "",
        "title": "b-260",
        "displayTitle": "",
        "body": "",
        "_trackingId": 27
    },
    {
        "_id": "b-265",
        "_parentId": "a-250",
        "_type": "block",
        "_classes": "",
        "title": "b-265",
        "displayTitle": "",
        "body": "",
        "_trackingId": 28
    },
    {
        "_id": "b-290",
        "_parentId": "a-250",
        "_type": "block",
        "_classes": "",
        "title": "b-290",
        "displayTitle": "",
        "body": "",
        "_trackingId": 29
    },
    {
        "_id": "b-300",
        "_parentId": "a-300",
        "_type": "block",
        "_classes": "",
        "title": "b-300",
        "displayTitle": "",
        "body": "",
        "_trackingId": 30
    },
    {
        "_id": "b-305",
        "_parentId": "a-300",
        "_type": "block",
        "_classes": "",
        "title": "b-305",
        "displayTitle": "",
        "body": "",
        "_trackingId": 31
    },
    {
        "_id": "b-310",
        "_parentId": "a-300",
        "_type": "block",
        "_classes": "",
        "title": "b-310",
        "displayTitle": "",
        "body": "",
        "_trackingId": 32
    },
    {
        "_id": "b-320",
        "_parentId": "a-300",
        "_type": "block",
        "_classes": "",
        "title": "b-320",
        "displayTitle": "",
        "body": "",
        "_trackingId": 33
    },
    {
        "_id": "b-325",
        "_parentId": "a-300",
        "_type": "block",
        "_classes": "",
        "title": "b-325",
        "displayTitle": "",
        "body": "",
        "_trackingId": 34
    },
    {
        "_id": "b-330",
        "_parentId": "a-300",
        "_type": "block",
        "_classes": "",
        "title": "b-330",
        "displayTitle": "",
        "body": "",
        "_trackingId": 35
    },
    {
        "_id": "b-400",
        "_parentId": "a-350",
        "_type": "block",
        "_classes": "",
        "title": "b-400",
        "displayTitle": "",
        "body": "",
        "_trackingId": 36
    },
    {
        "_id": "b-410",
        "_parentId": "a-350",
        "_type": "block",
        "_classes": "",
        "title": "b-410",
        "displayTitle": "",
        "body": "",
        "_trackingId": 37
    },
    {
        "_id": "b-420",
        "_parentId": "a-350",
        "_type": "block",
        "_classes": "",
        "title": "b-420",
        "displayTitle": "",
        "body": "",
        "_trackingId": 38
    },
    {
        "_id": "b-430",
        "_parentId": "a-350",
        "_type": "block",
        "_classes": "",
        "title": "b-430",
        "displayTitle": "",
        "body": "",
        "_trackingId": 39
    },
    {
        "_id": "b-500",
        "_parentId": "a-400",
        "_type": "block",
        "_classes": "",
        "title": "b-500",
        "displayTitle": "",
        "body": "",
        "_trackingId": 40
    },
    {
        "_id": "b-510",
        "_parentId": "a-400",
        "_type": "block",
        "_classes": "",
        "title": "b-510",
        "displayTitle": "",
        "body": "",
        "_trackingId": 41
    },
    {
        "_id": "b-580",
        "_parentId": "a-400",
        "_type": "block",
        "_classes": "",
        "title": "b-580",
        "displayTitle": "",
        "body": "",
        "_trackingId": 42
    },
    {
        "_id": "b-590",
        "_parentId": "a-400",
        "_type": "block",
        "_classes": "",
        "title": "b-590",
        "displayTitle": "",
        "body": "",
        "_trackingId": 43
    },
    {
        "_id": "b-600",
        "_parentId": "a-450",
        "_type": "block",
        "_classes": "",
        "title": "b-600",
        "displayTitle": "",
        "body": "",
        "_trackingId": 44
    },
    {
        "_id": "b-610",
        "_parentId": "a-450",
        "_type": "block",
        "_classes": "",
        "title": "b-610",
        "displayTitle": "",
        "body": "",
        "_trackingId": 45
    },
    {
        "_id": "b-615",
        "_parentId": "a-450",
        "_type": "block",
        "_classes": "",
        "title": "b-615",
        "displayTitle": "",
        "body": "",
        "_trackingId": 46
    },
    {
        "_id": "b-620",
        "_parentId": "a-450",
        "_type": "block",
        "_classes": "",
        "title": "b-620",
        "displayTitle": "",
        "body": "",
        "_trackingId": 47
    },
    {
        "_id": "b-625",
        "_parentId": "a-450",
        "_type": "block",
        "_classes": "",
        "title": "b-625",
        "displayTitle": "",
        "body": "",
        "_trackingId": 48
    },
    {
        "_id": "b-630",
        "_parentId": "a-450",
        "_type": "block",
        "_classes": "",
        "title": "b-630",
        "displayTitle": "",
        "body": "",
        "_trackingId": 49
    },
    {
        "_id": "b-635",
        "_parentId": "a-450",
        "_type": "block",
        "_classes": "",
        "title": "b-635",
        "displayTitle": "",
        "body": "",
        "_trackingId": 50
    },
    {
        "_id": "b-640",
        "_parentId": "a-450",
        "_type": "block",
        "_classes": "",
        "title": "b-640",
        "displayTitle": "",
        "body": "",
        "_trackingId": 51
    },
    {
        "_id": "b-645",
        "_parentId": "a-450",
        "_type": "block",
        "_classes": "",
        "title": "b-645",
        "displayTitle": "",
        "body": "",
        "_trackingId": 52
    },
    {
        "_id": "b-650",
        "_parentId": "a-450",
        "_type": "block",
        "_classes": "",
        "title": "b-650",
        "displayTitle": "",
        "body": "",
        "_trackingId": 53
    },
    {
        "_id": "b-655",
        "_parentId": "a-450",
        "_type": "block",
        "_classes": "",
        "title": "b-655",
        "displayTitle": "",
        "body": "",
        "_trackingId": 54
    },
    {
        "_id": "b-660",
        "_parentId": "a-450",
        "_type": "block",
        "_classes": "",
        "title": "b-660",
        "displayTitle": "",
        "body": "",
        "_trackingId": 55
    },
    {
        "_id": "b-665",
        "_parentId": "a-450",
        "_type": "block",
        "_classes": "",
        "title": "b-665",
        "displayTitle": "",
        "body": "",
        "_trackingId": 56
    },
    {
        "_id": "b-670",
        "_parentId": "a-450",
        "_type": "block",
        "_classes": "",
        "title": "b-670",
        "displayTitle": "",
        "body": "",
        "_trackingId": 57
    },
    {
        "_id": "b-680",
        "_parentId": "a-450",
        "_type": "block",
        "_classes": "",
        "title": "b-680",
        "displayTitle": "",
        "body": "",
        "_trackingId": 58
    },
    {
        "_id": "b-690",
        "_parentId": "a-450",
        "_type": "block",
        "_classes": "",
        "title": "b-690",
        "displayTitle": "",
        "body": "",
        "_trackingId": 59
    },
    {
        "_id": "b-700",
        "_parentId": "a-500",
        "_type": "block",
        "_classes": "",
        "title": "b-700",
        "displayTitle": "",
        "body": "",
        "_trackingId": 60
    },
    {
        "_id": "b-710",
        "_parentId": "a-500",
        "_type": "block",
        "_classes": "",
        "title": "b-710",
        "displayTitle": "",
        "body": "",
        "_trackingId": 61
    },
    {
        "_id": "b-720",
        "_parentId": "a-500",
        "_type": "block",
        "_classes": "",
        "title": "b-720",
        "displayTitle": "",
        "body": "",
        "_trackingId": 62
    },
    {
        "_id": "b-790",
        "_parentId": "a-500",
        "_type": "block",
        "_classes": "",
        "title": "b-790",
        "displayTitle": "",
        "body": "",
        "_trackingId": 63
    }
]