﻿[{
	"_id": "c-50",
	"_parentId": "b-50",
	"_type": "component",
	"_component": "text",
	"_classes": "",
	"_layout": "full",
	"title": "Giriş",
	"displayTitle": "",
	"body": "Facebook Haber Kaynağı, insanların arkadaşları ve akrabalarıyla bağlantı kurmak ve kendileriyle alakalı yeni içerikler keşfetmek için gittikleri yerdir. Facebook’ta reklamverenler, bu bağlantının parçası olmak ve hedef kitlelerine ilgi çekici ve bilgilendirici haber ve mesajlarla erişmek gibi çok özel bir fırsata sahiptir.<br><br>Ancak reklamverenler çoğu zaman hikayelerini anlatmak için mevcut reklam ünitesinin dışına çıkmak isterler. Mobilin yükselişiyle, çoğu reklamveren daha derin marka hikayeleri ve yeni müşteriler kazanmaya yönelik nokta atışı mesajlar paylaşmayı denemiştir. Bu yöntem işe yarasa da, bu olanağı sağlayan mobil sitelerin çoğunun uzun sürede yüklenmesi ve mobil için optimize edilmemiş olması bir engel olarak karşılarına çıkmaktadır. Bunun sonucunda insanlar sıkılarak siteden ayrılmakta ve reklamverenler hedef kitlelerine erişme fırsatını kaçırmaktadır.",
	"instruction": "",
	"_pageLevelProgress": {
		"_isEnabled": true
	}
},
{
	"_id": "c-55",
	"_parentId": "b-55",
	"_type": "component",
	"_component": "text",
	"_classes": "",
	"_layout": "full",
	"title": "Kanvas tam ekran deneyimi",
	"displayTitle": "Kanvas tam ekran deneyimi",
	"body": "Kanvas, reklamverenlerin satın alma niyetini artırmak ve müşterilerin akıcı bir deneyim içinde dönüşüm yoluna girmesini sağlamak için kullanabileceği güçlü bir araçtır. Tüm reklam formatlarında sunulan etkili bir tam ekran mobil deneyimdir. Platform, müşteri kazanma amaçlı mesajınızı veya marka hikayenizi iletmek için tek bir reklam ünitesi içinde videoları, görselleri, 360 içerikleri ve eylem çağrısı düğmelerini bir arada kullanmanıza olanak tanır. Kanvası mobilde görüntüleyen kişiler Facebook uygulamasında ekranı kaydırarak, eğerek veya yakınlaştırarak bu özelleştirilmiş reklam deneyimlerini keşfedebilir.",
	"_pageLevelProgress": {
		"_isEnabled": true
	}
},
{
	"_id": "c-56",
	"_parentId": "b-55",
	"_type": "component",
	"_component": "framed-video",
	"_classes": "",
	"_layout": "full",
	"title": "Blueprint Kanvas",
	"displayTitle": "",
	"body": "",
	"_videoPosition": "top",
	"_videoPt": {
		"x": "36px",
		"y": "85px"
	},
	"_componentHeight": "650px",
	"instruction": "",
	"_items": [{
		"frame": "<img src='course/en/images/01_introduction/blueprint_iphone.png'/>"
	},
	{
		"video": "<video controls poster='course/en/images/01_introduction/blueprint_canvas_poster.png' id='vid' width='250px' controls='controls'><source src='course/en/video/blueprint_canvas_video.mp4' type='video/mp4'></video>"
	}]
},
{
	"_id": "c-60",
	"_parentId": "b-60",
	"_type": "component",
	"_component": "animate-message",
	"_classes": "",
	"_layout": "full",
	"title": "Kanvaslar en çok hangi durumlarda işe yarar?",
	"displayTitle": "Kanvaslar en çok hangi durumlarda işe yarar?",
	"body": "",
	"instruction": "",
	"titleAnimation": "transition.slideRightIn",
	"bodyAnimation": "transition.slideLeftIn",
	"backgroundColor": "#ffffff,#ffffff,#ffffff",
	"_spacing": "20px",
	"_pageLevelProgress": {
		"_isEnabled": true
	},
	"_items": [{
		"item_title": "",
		"body": "<br><img src='course/en/images/01_introduction/driving_awareness.png' style='float:left;padding-right:40px;'><div style='min-height:283;'><h2>Bilinirliği artırma</h2><br>Marka veya ürününüzün hikayesini rahat bir hikaye anlatma formatı içinde iletmek için tam ekran Kanvas deneyimini kullanın."
	}]
},
{
	"_id": "c-61",
	"_parentId": "b-60",
	"_type": "component",
	"_component": "animate-message",
	"_classes": "",
	"_layout": "full",
	"title": "",
	"displayTitle": "",
	"body": "",
	"instruction": "",
	"titleAnimation": "transition.slideRightIn",
	"bodyAnimation": "transition.slideLeftIn",
	"backgroundColor": "#ffffff,#ffffff,#ffffff",
	"_spacing": "20px",
	"_pageLevelProgress": {
		"_isEnabled": false
	},
	"_items": [{
		"item_title": "",
		"body": "<br><img src='course/en/images/01_introduction/customer_acquisition.png' style='float:left;padding-right:40px;'><div style='min-height:283;'><h2>Yeni müşteriler kazanma</h2><br>İnternet sitenizin mevcut yönlendirme sayfalarının içeriğini tam ekran Kanvas’a getirerek ürün veya hizmetinizin özelliklerini ve avantajlarını vurgulayın ve ilgi gösteren kişileri doğrudan uygulama veya site kayıt sayfanıza yönlendirerek dönüşümleri artırın."
	}]
},
{
	"_id": "c-62",
	"_parentId": "b-60",
	"_type": "component",
	"_component": "animate-message",
	"_classes": "",
	"_layout": "full",
	"title": "",
	"displayTitle": "",
	"body": "",
	"instruction": "",
	"titleAnimation": "transition.slideRightIn",
	"bodyAnimation": "transition.slideLeftIn",
	"backgroundColor": "#ffffff,#ffffff,#ffffff",
	"_spacing": "20px",
	"_pageLevelProgress": {
		"_isEnabled": false
	},
	"_items": [{
		"item_title": "",
		"body": "<br><img src='course/en/images/01_introduction/increasing_sales.png' style='float:left;padding-right:40px;'><div style='min-height:283;'><br><h2>Mobilde alışveriş için ilham verin</h2><br>Ürününüzün/hizmetinizin özelliklerini ve avantajlarını anlatın ve insanları alışverişe teşvik edin."
	}]
},
{
	"_id": "c-65",
	"_parentId": "b-65",
	"_type": "component",
	"_component": "animate-message",
	"_classes": "",
	"_layout": "full",
	"title": "Avantajları",
	"displayTitle": "Avantajları",
	"body": "",
	"instruction": "",
	"titleAnimation": "transition.slideRightIn",
	"bodyAnimation": "transition.slideLeftIn",
	"backgroundColor": "#4080ff,#4080ff,#4080ff,#4080ff",
	"_spacing": "10px",
	"_cornerRadius": "0px",
	"_pageLevelProgress": {
		"_isEnabled": true
	},
	"_items": [{
		"item_title": "<div style='padding-left:15px;padding-top:20px; color:#ffffff;'><b>Tam ekran görüntülenir</b></div>",
		"body": "<div style='padding-left:15px;padding-right:10px;padding-top:20px; color:#ffffff;'>İnsanlar mobil Haber Kaynaklarında fotoğraf, video, döngü, slayt gösterisi veya koleksiyona tıkladığında, Kanvas Facebook’un içinde insanların içerikle etkileşimde bulunabileceği zengin ve tam ekran bir deneyim açar. Sunulan geniş alan, insanların ürünlerinizin daha fazlasını keşfetmesine ve görmesine olanak tanır.</div>"
	},
	{
		"item_title": "<div style='padding-left:15px;padding-top:20px; color:#ffffff;'><b>Hızlı yüklenir</b></div>",
		"body": "<div style='padding-left:15px;padding-right:10px;padding-top:20px; color:#ffffff;'>Tam ekran Kanvas deneyimi içerikleri ön belleğe alan bir çözüm sunar, böylece Facebook’un içinde neredeyse anında yüklenip görüntülenerek müşteri ile mesajınız arasındaki mesafeyi kısaltır.</div>"
	},
	{
		"item_title": "<div style='padding-left:15px;padding-top:20px; color:#ffffff;'><b>Oluşturması kolaydır</b></div>",
		"body": "<div style='padding-left:15px;padding-right:10px;padding-top:20px; color:#ffffff;'>Kanvas oluşturmak son derece kolaydır. Çeşitli seçenekler sunulmaktadır. Reklam Yöneticisi veya Power Editor’daki kullanımı kolay şablonlardan faydalanabilirsiniz. Marka içeriklerinizi yükleyin veya yönlendirme sayfalarınızdaki içerikleri kullanın, bağlantılar ve marka metni ekleyin. Artık hazırsınız. Bu şablonlar belirli reklam verme amaçları için tasarlanmıştır. İsterseniz Sayfanızın oluşturucusu, Yayınlama Araçları, Reklam Yöneticisi, Power Editor veya API üzerinden Kanvas Oluşturucu’yu kullanarak özelleştirilmiş bir Kanvas oluşturabilirsiniz.</div>"
	},
	{
		"item_title": "<div style='padding-left:15px;padding-top:20px; color:#ffffff;'><b>Çeşitli reklam formatlarında kullanılabilir</b></div>",
		"body": "<div style='padding-left:15px;padding-right:10px;padding-top:20px; color:#ffffff;'>Markanızın hikayesini ve ürünlerini anlatmak için Kanvas deneyimini bir görsel, video, slayt gösterisi, döngü veya koleksiyonla birlikte kullanabilirsiniz. Hızlı bir uygulama için şablonları kullanın veya tamamen size özel bir çözüm için Kanvas Oluşturucu’dan faydalanın.</div>"
	}]
},
{
	"_id": "c-75",
	"_parentId": "b-75",
	"_type": "component",
	"_component": "co-jump",
	"_classes": "color-test",
	"_preLinkBody": "Sıradaki konumuz ",
	"_linkBody": "Kanvas, İşletme Hedeflerinizi Nasıl Destekleyebilir?",
	"_postLinkBody": ".",
	"_link": "#/id/co-100",
	"_graphic": "adapt/css/assets/icon_nextPage.png",
	"_pageLevelProgress": {
		"_isEnabled": false
	}
},
{
	"_id": "c-100",
	"_parentId": "b-100",
	"_type": "component",
	"_component": "text",
	"_classes": "",
	"_layout": "full",
	"title": "İşletme hedefleri",
	"displayTitle": "",
	"body": "Konu her zaman dönüp dolaşıp en önemli şeye, işletme hedefinize gelir. Tam ekran Kanvas, çok yönlülüğüyle çeşitli işletme hedeflerini destekler ve tüm formatlarda kullanılabilir. Müşterileri Kanvas deneyiminize çekmek için giriş noktası olarak fotoğraf, video, döngü, slayt gösterisi veya koleksiyon kullanabilirsiniz.",
	"instruction": "",
	"_pageLevelProgress": {
		"_isEnabled": true
	}
},
{
	"_id": "c-110",
	"_parentId": "b-110",
	"_type": "component",
	"_component": "text",
	"_classes": "",
	"_layout": "full",
	"title": "Bilinirliği artırın",
	"displayTitle": "Bilinirliği artırın",
	"body": "Bilinirliğinizi artırmak ve müşterilerinize yeni ürünler, teklifler veya belirli özellikler ve avantajlar hakkında bilgi vermek için Kanvas’ı kullanın. Mobil için optimize edilmiş anında yüklenen deneyimin gücüyle, potansiyel müşterilerinizin satın alma niyetini besleyip olgunlaştırabilirsiniz. Bilinirliği artırmak için aşağıdaki reklam verme amaçları kullanılabilir:<br><br><ul><li>Erişim</li><li>Marka Bilinirliği</li><li>Etkileşim (Gönderi Etkileşimi)</li><li>Video Görüntülemeleri<br><br>Video Görüntülemeleri reklam verme amacı en yüksek erişim ve dikkat oranını sunar. Video görüntülemeleri reklam verme amacını tam ekran Kanvas’la birleştirerek, video görüntüleme deneyimini geliştirirken Kanvas’ta markanızın hikayesini zengin bir formatta anlatabilirsiniz. Bir kullanıcı Haber Kaynağı’nda Kanvas videosuna dokunduğunda, video Kanvasın üst kısmında oynamaya devam ederken Kanvasın geri kalan kısmı interaktif ve sürükleyici bir deneyim sunar.</li></ul>",
	"instruction": "",
	"_pageLevelProgress": {
		"_isEnabled": true
	}
},
{
	"_id": "c-111",
	"_parentId": "b-110",
	"_type": "component",
	"_component": "framed-video",
	"_classes": "",
	"_layout": "full",
	"title": "Video Görüntülemeleri",
	"displayTitle": "",
	"body": "",
	"_videoPosition": "top",
	"_videoPt": {
		"x": "36px",
		"y": "85px"
	},
	"_componentHeight": "650px",
	"instruction": "",
	"_items": [{
		"frame": "<img src='course/en/images/01_introduction/blueprint_iphone.png'/>"
	},
	{
		"video": "<video controls poster='course/en/images/01_introduction/blueprint_canvas_poster.png' id='vid' width='250px' controls='controls'><source src='course/en/video/video_views_demo.mp4' type='video/mp4'></video>"
	}]
},
{
	"_id": "c-112",
	"_parentId": "b-110",
	"_classes": "",
	"_type": "component",
	"_layout": "full",
	"_component": "narrative",
	"title": "Farklı sektörler bilinirliklerini artırmak için Kanvas’ı nasıl kullanıyor?",
	"displayTitle": "",
	"_setCompletionOn": "inview",
	"body": "Bu bileşen, metinler de içeren bir görsel galerisini görüntüler. Metin üzerinde çalışmak için ileri ve geri gezinme denetimlerini kullanın.<br><br>Ürün/marka mesajınızı iletmek ve video deneyiminizi geliştirmek için Kanvas’ı nasıl kullanabileceğinize birkaç örnek:",
	"instruction": "",
	"_hasNavigationInTextArea": false,
	"_items": [{
		"title": "Perakende",
		"body": "Perakendeciler yeni ürünlerini veya kataloglarındaki bir ürün grubunu tanıtmak için Kanvas’ı kullanabilir.",
		"_graphic": {
			"src": "course/en/images/02_business_objectives/retail.png",
			"alt": "Perakende",
			"title": "Perakende"
		},
		"strapline": "Perakende"
	},
	{
		"title": "Otomotiv",
		"body": "Otomobil üreticileri yeni bir otomobilin lansmanını duyurmak veya ürün özelliklerini öne çıkarmak için Kanvas’ı kullanabilir. Otomobil üreticileri ayrıca Kanvaslarında model-fiyat, stok arama ve yakındaki bayileri bulma gibi özelliklere yer verebilir.",
		"_graphic": {
			"src": "course/en/images/02_business_objectives/auto.png",
			"alt": "İlk grafik",
			"title": "İkinci grafik"
		},
		"strapline": "Otomotiv"
	},
	{
		"title": "Eğlence",
		"body": "Eğlence işletmeleri, yakında gösterime girecek film veya TV dizilerinin karakterlerini tanıtmak ya da sahnelerini göstermek için Kanvas’ı kullanabilir.",
		"_graphic": {
			"src": "course/en/images/02_business_objectives/entertainment.png",
			"alt": "Eğlence",
			"title": "Eğlence"
		},
		"strapline": "Eğlence"
	},
	{
		"title": "Seyahat",
		"body": "Seyahat ve ağırlama tedarikçileri Kanvas’ı kullanarak sanal turlarla müşterilerini cezbedebilir.",
		"_graphic": {
			"src": "course/en/images/02_business_objectives/travel.png",
			"alt": "Seyahat",
			"title": "Seyahat"
		},
		"strapline": "Seyahat"
	}],
	"_pageLevelProgress": {
		"_isEnabled": true
	}
},
{
	"_id": "c-120",
	"_parentId": "b-120",
	"_type": "component",
	"_component": "text",
	"_classes": "",
	"_layout": "full",
	"title": "Yeni müşteriler kazanın",
	"displayTitle": "Yeni müşteriler kazanın",
	"body": "İçeriğinizin daha fazlasını göstermek ve müşterileri istediğiniz eylem çağrısına yönlendirmek için tam ekran Kanvasları kullanın. Aşağıdaki reklam verme amaçlarını kullanarak yönlendirme sayfanızı bir Kanvasta kolay bir şekilde değiştirebilir ve böylece yeni müşteriler kazanabilirsiniz:<br><br><ul><li>Trafik (İnternet Sitesi)</li><li>Dönüşümler (İnternet Sitesi)</li><li>Uygulama Yüklemeleri</li><li>Etkileşim</li></ul>",
	"instruction": "",
	"_pageLevelProgress": {
		"_isEnabled": true
	}
},
{
	"_id": "c-121",
	"_parentId": "b-120",
	"_classes": "",
	"_type": "component",
	"_layout": "full",
	"_component": "narrative",
	"title": "Sektörler yeni müşteri kazanmak için Kanvas’ı nasıl kullanıyor?",
	"displayTitle": "",
	"_setCompletionOn": "inview",
	"body": "Bu bileşen, metinler de içeren bir görsel galerisini görüntüler. Metin üzerinde çalışmak için ileri ve geri gezinme denetimlerini kullanın.<br><br>Yeni müşteriler kazanmak ve yönlendirme sayfanızı değiştirmek için Kanvas’ı nasıl kullanabileceğinize birkaç örnek:",
	"instruction": "",
	"_hasNavigationInTextArea": false,
	"_items": [{
		"title": "Dijital abonelik hizmetleri",
		"body": "Yönlendirme sayfanızı değiştirin ve daha fazla miktarda nitelikli trafiği doğrudan kaydolma veya abonelik aşamasına yönlendirin.",
		"_graphic": {
			"src": "course/en/images/02_business_objectives/subscriptions.png",
			"alt": "Dijital abonelik hizmetleri",
			"title": "Dijital abonelik hizmetleri"
		},
		"strapline": "Dijital abonelik hizmetleri"
	},
	{
		"title": "Teknoloji/Telekomünikasyon",
		"body": "Teknoloji ve telekomünikasyon sağlayıcıları Kanvas’ı şu amaçlar için kullanabilir: 1) Ürün sunumları veya ürünlerinin farklı özelliklerini öne çıkarmak 2) Cep telefonu tarifesiyle ilgili bilgilerin yanında insanları mağazalara yönlendiren bir mağaza bulucu.",
		"_graphic": {
			"src": "course/en/images/02_business_objectives/techtelco.png",
			"alt": "Teknoloji/Telekomünikasyon",
			"title": "Teknoloji/Telekomünikasyon"
		},
		"strapline": "Teknoloji/Telekomünikasyon"
	},
	{
		"title": "Finans Hizmetleri/Sigorta",
		"body": "Finans kurumları yeni kart müşterileri kazanmak için doğrudan postada yaptıkları gibi kredi kartlarının avantajlarını Kanvas’ta sergileyebilir.<br><br>Sigorta şirketleri Kanvas’ı kullanarak farklı sigorta ürünlerini sergiledikten sonra potansiyel müşterileri fiyat teklifi alma akışına yönlendirebilir.",
		"_graphic": {
			"src": "course/en/images/02_business_objectives/insurance.png",
			"alt": "Finans Hizmetleri/Sigorta",
			"title": "Finans Hizmetleri/Sigorta"
		},
		"strapline": "Finans Hizmetleri/Sigorta"
	}],
	"_pageLevelProgress": {
		"_isEnabled": true
	}
},
{
	"_id": "c-130",
	"_parentId": "b-130",
	"_type": "component",
	"_component": "text",
	"_classes": "",
	"_layout": "left",
	"title": "Mobil alışverişe ilham verin",
	"displayTitle": "Mobil alışverişe ilham verin",
	"body": "İşletmeler ürünlerinin keşfedilmesini kolaylaştırmak için ayrıca Haber Kaynağı’nda bir koleksiyon reklam formatına yer vererek Kanvaslarının performansını en üst düzeye çıkarabilir. Bu onlara, mobil keşif alanının merkezinde ürünlerini ve özelliklerini sergileme, müşterilere bilgi verme ve daha yüksek değerli dönüşümler sağlama olanağı verir.<br><br>Aşağıdaki reklam verme amaçlarını kullanarak mobil alışverişi teşvik edin:<br><br><ul><li>Trafik</li><li>Dönüşümler (İnternet Sitesi)</li></ul><br><br>Daha fazla bilgiyi<i> Koleksiyon Reklam Formatı: Mobil Müşterileri Alışverişe Teşvik Etme</i> Blueprint kursunda bulabilirsiniz.",
	"instruction": "",
	"_pageLevelProgress": {
		"_isEnabled": true
	}
},
{
	"_id": "c-131",
	"_parentId": "b-130",
	"_type": "component",
	"_component": "framed-video",
	"_classes": "",
	"_layout": "right",
	"title": "",
	"displayTitle": "",
	"body": "",
	"instruction": "",
	"_videoPt": {
		"x": "0px",
		"y": "px"
	},
	"_componentHeight": "600px",
	"_mute": "true",
	"_items": [{
		"frame": "<img width='100%' height='100%' src='course/en/images/01_introduction/shopbop_frame.png'/>"
	},
	{
		"video": "<video controls id='vid' width='270px' controls='controls'><source src='course/en/images/01_introduction/shopbop.mp4' type='video/mp4'></video>"
	}]
},
{
	"_id": "c-140",
	"_parentId": "b-140",
	"_type": "component",
	"_component": "co-jump",
	"_classes": "color-test",
	"_preLinkBody": "Şimdi Kanvas’ın sunduğu olanaklara bakalım: ",
	"_linkBody": "Güçlü Bir Platform",
	"_postLinkBody": ".",
	"_link": "#/id/co-150",
	"_graphic": "adapt/css/assets/icon_nextPage.png",
	"_pageLevelProgress": {
		"_isEnabled": false
	}
},
{
	"_id": "c-150",
	"_parentId": "b-150",
	"_type": "component",
	"_component": "text",
	"_classes": "",
	"_layout": "full",
	"title": "",
	"displayTitle": "",
	"body": "Kanvas, reklamverenlerin satın alma niyetini artırmak ve potansiyel müşterilerin akıcı bir deneyim içinde dönüşüm yoluna girmesini sağlamak için kullanabileceği güçlü bir araçtır. Platform çok sayıda reklam verme amacını desteklerken tüm reklam formatlarında kullanılabilir; yani yeni müşteri kazanmak, bilinirliği artırmak ve mobil alışverişleri teşvik etmek için harikadır. Bu, reklamverenlerin marka mesajlarını interaktif bir tam ekran deneyimle paylaşmasını sağlar.<br><br>Reklamverenler Kanvas’ı kullanarak göz alıcı mobil deneyimler için güzel ve etkili marka ve ürün mesajları oluşturabilir. İnteraktif deneyimi yaratmak için metin, fotoğraflar, otomatik oynatılan videolar, 360 videolar, döngü, eylem çağrısı düğmesi, sağa/sola yatırılarak kaydırılabilen görseller ve mağaza bulucu gibi çeşitli multimedya öğelerinin kombinasyonu kullanılabilir. Kullanımı kolay şablonlardan oluşturulabilir veya özel ihtiyaçlara göre şekillendirilebilir, böylece marka hikayesinin anlatılması için tamamen özelleştirilebilir bir alan sağlanmış olur. Hatta Kanvaslar birbirine bağlanarak mikrosite benzeri bir etki yaratılabilir. Eylem çağrısı düğmesi ekleme veya açmak için kaydır özelliğini kullanma seçeneği, reklamverenlere işletme hedeflerinin daha büyük bir kısmını gerçekleştirme ve müşterilerin alışverişlerini site dışında yapmasını sağlama olanağı tanır.<br><br>Kanvaslar ayrıca müşterileri hunide ilerletmek için istenen şekilde sıralanabilir. Etkileşim Özel Hedef Kitleleri ile, reklamverenler daha önce ilgisini ifade etmiş müşterilere yeniden pazarlama yaparak onları daha fazla eylemde bulunmaya teşvik etmek için bir Kanvas’taki niyet sinyallerini kullanabilir.",
	"instruction": "",
	"_pageLevelProgress": {
		"_isEnabled": true
	}
},
{
	"_id": "c-155",
	"_parentId": "b-155",
	"_type": "component",
	"_component": "canvas-animation",
	"_classes": "",
	"_layout": "full",
	"_animateOn": "inview",
	"title": "Kanvas yapısı",
	"displayTitle": "",
	"animationName": "CanvasBuildout",
	"animation": "course/en/animations/canvasbuildout/canvasbuildout.js",
	"body": "<div id='CanvasBuildout'></div>",
	"_resources": {
		"phone": "course/en/animations/canvasbuildout/canvas_phone.png",
		"photo_1": "course/en/animations/canvasbuildout/canvas_c_img_1.png",
		"photo_2": "course/en/animations/canvasbuildout/canvas_c_img_2.png",
		"photo_3": "course/en/animations/canvasbuildout/canvas_c_img_3.png",
		"photo_4": "course/en/animations/canvasbuildout/canvas_c_img_4.png",
		"button": "course/en/animations/canvasbuildout/button_back.png",
		"button_text": "Şimdi Alışveriş Yap",
		"box_text": "  Bu sezonun en\niyilerine göz atın!"
	},
	"instruction": "",
	"_pageLevelProgress": {
		"_isEnabled": false
	}
},
{
	"_id": "c-165",
	"_parentId": "b-165",
	"_type": "component",
	"_component": "text",
	"_classes": "",
	"_layout": "full",
	"title": "Tam ekran Kanvas deneyimi",
	"displayTitle": "Tam ekran Kanvas deneyimi",
	"body": "İnsanlar Kanvas kullanılan bir Haber Kaynağı reklamına dokunduğunda, mobil cihazlarında tam ekran bir deneyim açılır.<br><br>Kullanıcı dijital hikayeler arasında interaktif bir dergideki gibi ilerledikçe görüntü, ses ve hareket öğelerinin gücüyle markanıza hayat veren videoları izleyebilir ya da görsel döngüsünü kaydırarak, panoramik görselleri görmek için cihazını yana yatırarak veya görselleri daha detaylı görmek için yakınlaştırarak Kanvasla etkileşimde bulunabilir.<br><br>Kanvas’taki interaktif öğeler hedef kitleyi daha fazla bilgi/içerik aramaya teşvik eder ve süreç içinde niyet oluşturur.<br><br>Bu basit ancak güçlü deneyim sayesinde hedef kitle Facebook’tan ayrılmadan marka ve ürünleriniz hakkında daha fazla bilgi edinebilir.<br><br>Son olarak işletmeniz hakkında daha fazla bilgi almak, ürün satın almak veya bağlantılı başka bir Kanvası görüntülemek için eylem çağrısı düğmesine dokunarak veya ekranı kaydırarak kolayca mobil sitenizin bağlantısını açabilirler. Ayrıca işletme Kanvasa Mağaza Bulucu özelliğini eklediyse, en yakın mağazayı bulup yol tarifi alabilirler.<br><br><br><br>Aşağıdaki bileşen bir görsel üzerindeki noktaları seçmenize imkan tanır. Ekran metni içeren bir görselle bir açılır pencerenin görünmesi için bir nokta seçin. Açılır pencereyi kapatmak için kapat düğmesini seçin.",
	"instruction": "",
	"_pageLevelProgress": {
		"_isEnabled": true
	}
},
{
	"_id": "c-170",
	"_parentId": "b-170",
	"_classes": "",
	"_type": "component",
	"_component": "hotgraphic",
	"_layout": "full",
	"title": "Deneyim",
	"displayTitle": "",
	"body": "",
	"mobileBody": "",
	"instruction": "",
	"mobileInstruction": "",
	"_useGraphicsAsPins": false,
	"_canCycleThroughPagination": false,
	"_hidePagination": false,
	"_setCompletionOn": "inview",
	"_graphic": {
		"src": "course/en/images/03_creative_canvas/experience.png",
		"alt": "alternatif metin",
		"width": "800px"
	},
	"_items": [{
		"title": "Mobil Haber Kaynağı’nda Reklam",
		"body": "Kullanıcıları Kanvas deneyimine çekmek için “olta” olarak görsel, video, döngü, slayt gösterisi veya koleksiyon kullanılabilir.  Reklama tıklandığında Kanvas tam ekran bir deneyim olarak açılır.",
		"_graphic": {
			"src": "course/en/images/03_creative_canvas/stylin_link_ad.png",
			"alt": "Mobil Haber Kaynağı’nda Reklam",
			"_classes": ""
		},
		"pinAlt": "alt text",
		"strapline": "Mobil Haber Kaynağı’nda Reklam",
		"_classes": "top-left",
		"_top": 2,
		"_left": 22
	},
	{
		"title": "Logo içeren başlık",
		"body": "Hedef kitleniz Kanvası açtığında en üstte logonuzu içeren başlığı görür.  Başlıklar Kanvas deneyimi boyunca ekranın üst kısmına tutturulmuş şekilde kalır.<br><br><i>Not:</i> Başlıkların sabitlenmesini istemiyorsanız, başlık yerine bir görsel veya metin bloğu kullanabilirsiniz.",
		"_graphic": {
			"src": "course/en/images/03_creative_canvas/header.png",
			"alt": "Logo içeren başlık",
			"_classes": ""
		},
		"pinAlt": "alt text",
		"strapline": "Logo içeren başlık",
		"_classes": "center",
		"_top": 0,
		"_left": 57
	},
	{
		"title": "Tam ekran görsel",
		"body": "Hedef kitle Kanvasta ilerledikçe, markanızın ve ürünlerinizin tam ekran dikey görsellerini görüntüleyebilir.",
		"_graphic": {
			"src": "course/en/images/03_creative_canvas/image.png",
			"alt": "Tam ekran görsel",
			"_classes": ""
		},
		"pinAlt": "alt text",
		"strapline": "Tam ekran görsel",
		"_classes": "bottom-right",
		"_top": 10,
		"_left": 57
	},
	{
		"title": "Metin bloğu",
		"body": "Kanvas içindeki metin blokları kilit mesajlarınızı iletir.",
		"_graphic": {
			"src": "course/en/images/03_creative_canvas/text_block.png",
			"alt": "Metin bloğu",
			"_classes": ""
		},
		"pinAlt": "alt text",
		"strapline": "Metin bloğu",
		"_classes": "bottom-right",
		"_top": 22,
		"_left": 57
	},
	{
		"title": "Görsel döngüsü",
		"body": "Hedef kitleniz Kanvasın içinde ekranı kaydırarak ürünlerinizi sergileyen görsellerden oluşan bir döngüde gezinebilir.",
		"_graphic": {
			"src": "course/en/images/03_creative_canvas/image_carousel.png",
			"alt": "Görsel döngüsü",
			"_classes": ""
		},
		"pinAlt": "alt text",
		"strapline": "Görsel döngüsü",
		"_classes": "bottom-right",
		"_top": 32,
		"_left": 98
	},
	{
		"title": "Sağa/sola yatırılarak kaydırılabilen tam ekran görsel",
		"body": "Sağa/sola yatırılarak kaydırılabilen görseller, hedef kitlenizin ekranı sağa ve sola yatırarak panoramik görselinizle etkileşime geçmesine ve diğer kısımlarını görmesine olanak tanır.",
		"_graphic": {
			"src": "course/en/images/03_creative_canvas/tilt_to_pan.png",
			"alt": "Sağa/sola yatırılarak kaydırılabilen tam ekran görsel",
			"_classes": ""
		},
		"pinAlt": "alt text",
		"strapline": "Sağa/sola yatırılarak kaydırılabilen görsel",
		"_classes": "bottom-right",
		"_top": 49,
		"_left": 70
	},
	{
		"title": "Video",
		"body": "Otomatik oynatılan videolar görüntü, ses ve hareket öğelerinin gücünü kullanarak markanıza ve mesajınıza hayat verir.<br><br>360 videolar, hedef kitlenizin cihazlarını döndürerek veya parmaklarını sürükleyerek video içinde gezinmesine ve tüm açıları keşfetmesine olanak sağlar.",
		"_graphic": {
			"src": "course/en/images/03_creative_canvas/autoplay_video.png",
			"alt": "Video",
			"_classes": ""
		},
		"pinAlt": "alt text",
		"strapline": "Video",
		"_classes": "bottom-right",
		"_top": 73,
		"_left": 74
	},
	{
		"title": "Eylem çağrısı düğmesi",
		"body": "Son olarak, eylem çağrısı düğmesi veya açmak için kaydır özelliği ziyaretçilerinizin daha fazla bilgi almak için site dışına gitmesine olanak tanır. Eylem çağrısı düğmenizi başka bir Kanvasa bağlantı vermek için kullandıysanız, hedef kitleniz bağlantılı Kanvası keşfetmeye devam edebilir.<br><br>İsterseniz son bileşeniniz olarak Mağaza Bulucu’yu da kullanabilirsiniz.  Bu bileşen, müşterilerinizin en yakın mağaza konumunu bulmasına yardımcı olur ve varsayılan harita uygulamalarını kullanarak yol tarifi sağlar.  <br><i>Not:</i> Mağaza Bulucu’yu kullanmak için, Kanvasınızı Reklam Yöneticisi ve Power Editor ile oluşturmanız ve Sayfa konumlarını etkinleştirmiş olmanız gerekir.",
		"_graphic": {
			"src": "course/en/images/03_creative_canvas/cta.png",
			"alt": "Eylem çağrısı düğmesi",
			"_classes": ""
		},
		"pinAlt": "alt text",
		"strapline": "Eylem çağrısı düğmesi",
		"_classes": "bottom-right",
		"_top": 90,
		"_left": 57
	}]
},
{
	"_id": "c-175",
	"_parentId": "b-175",
	"_type": "component",
	"_component": "co-jump",
	"_classes": "color-test",
	"_preLinkBody": "Tam ekran Kanvas deneyimi ile elde edeceğiniz kreatif olanakları hakkında fikir edindik. Sıradaki konumuz ",
	"_linkBody": "Kreatifler İçin İpuçları",
	"_postLinkBody": ".",
	"_link": "#/id/co-200",
	"_graphic": "adapt/css/assets/icon_nextPage.png",
	"_pageLevelProgress": {
		"_isEnabled": false
	}
},
{
	"_id": "c-200",
	"_parentId": "b-200",
	"_classes": "",
	"_type": "component",
	"_layout": "full",
	"_component": "accordion",
	"title": "Kreatifler için ipuçları",
	"displayTitle": "",
	"body": "Tam ekran Kanvas deneyiminizi oluşturmaya başlarken kreatifinizi şekillendirmek için faydalanabileceğiniz bazı ipuçlarını aşağıda bulabilirsiniz.",
	"instruction": "",
	"_setCompletionOn": "inview",
	"_items": [{
		"title": "Güçlü bir açılış yapın",
		"body": "Kanvas, Haber Kaynağı’nda bir reklam ile başlar ve tam ekran bir deneyim şeklinde açılır. Güçlü bir açılış yaparak insanların dikkatini çekin ve reklama dokunarak daha fazlasını görmeleri için bir sebep verin. Görseller, videolar, döngüler ve sinematograflar insanların dikkatini çekmek için etkili şekilde kullanılabilir.",
		"strapline": "Güçlü bir açılış yapın"
	},
	{
		"title": "En büyük kozunuzu geride tutmayın",
		"body": "Kanvasınıza bakan insanlar her zaman en sona ulaşmayabilir. İlgilerini korumak için en güçlü noktanızı Kanvasınızın başlarında veya ortalarında öne çıkarın. Örneğin, ünlü bir kişiden destek alıyorsanız veya öne çıkarmak istediğiniz belirli ürünleriniz varsa sona kadar beklemeyin.",
		"strapline": "En büyük kozunuzu geride tutmayın"
	},
	{
		"title": "İnsanların kendileriyle alakalı olduğunu hissedecekleri içerikler kullanın",
		"body": "Fazla satış kokan veya markaya aşırı odaklanan Kanvaslar da iyi performans göstermez. İçeriğinizle değer sunun. İnsanlara ürünleriniz hakkında bilgi verin, güncel fırsatlarınızın tanıtımını yapın veya işletmenizin gerçek insanlar üzerinde nasıl etki yarattığı hakkında ilgi çekici hikayeler anlatın.",
		"strapline": "İnsanların kendileriyle alakalı olduğunu hissedecekleri içerikler kullanın"
	},
	{
		"title": "Hikayenizi yapılandırın",
		"body": "Hikaye anlatmak, insanları Kanvas içinde yönlendirmek için etkili bir yöntemdir. İnsanlara, ilerlemeye devam ederlerse görecekleri daha fazla içerik olduğunu anlatmak için çerçeveler, zaman çizelgeleri veya bölümler kullanarak hikayenizi yapılandırın.",
		"strapline": "Hikayenizi yapılandırın"
	},
	{
		"title": "Görsel, video ve metinleri bir arada kullanın",
		"body": "Tek bir video veya görsel kullanan Kanvaslar, genellikle 5-7 bileşeni birlikte kullanan daha uzun Kanvaslara kıyasla daha az dikkat çeker. İnsanları yönlendirmek için ilgi çekici başlıklarla kısa ve özlü metinler kullanın. Sözcükler, Kanvasınızı daha kolay tüketilebilir bölümlere ayırmanıza yardımcı olabilir.",
		"strapline": "Görsel, video ve metinleri bir arada kullanın"
	},
	{
		"title": "İnsanların kendi hızlarında etkileşim kurmasına izin verin",
		"body": "İnsanlar içeriği tüketme hızlarını kendileri belirlediğinde, daha dinamik ve kişiselleştirilmiş bir deneyim yaşarlar. Video ve döngüleri kısa tutarak ve sağa/sola yatırılarak kaydırılabilen görseller kullanarak Kanvasınızı keşfetmelerini kolaylaştırın.",
		"strapline": "İnsanların kendi hızlarında etkileşim kurmasına izin verin"
	},
	{
		"title": "İnsanlara yol gösterin",
		"body": "İnsanlara Kanvasınız içinde yol göstermek için kendi görsel ipuçlarınızı ekleyin. Döngüler ve sağa/sola yatırılarak kaydırılabilen görseller gibi interaktif özellikler olduğunda insanlar Kanvasta daha fazla süre geçirir. İnsanlara bir görseli/videoyu keşfetmek için telefonlarını yana yatırabileceklerini veya bir döngünün diğer kısımlarını görmek için ekranı kaydırabileceklerini söyleyin.",
		"strapline": "İnsanlara yol gösterin"
	},
	{
		"title": "Elinizdeki malzemeleri kullanın",
		"body": "Zaman ve çabadan tasarruf etmek için elinizdeki malzemeleri yeniden kullanın. TV reklamlarında, internet sitelerinde veya basılı medyada yayınlanmış görselleri ve videoları kullanarak eksiksiz bir Kanvas oluşturabilirsiniz. Dikey bir mobil ekrana sığması için yatay bir videoyu kırpmayı ya da bir görseli hikayenizin amacına uygun hale getirmek için üzerine metin eklemeyi deneyin.",
		"strapline": "Elinizdeki malzemeleri kullanın"
	}],
	"_pageLevelProgress": {
		"_isEnabled": true
	}
},
{
	"_id": "c-205",
	"_parentId": "b-205",
	"_type": "component",
	"_component": "co-jump",
	"_classes": "color-test",
	"_preLinkBody": "Sıradaki konumuz ",
	"_linkBody": "Başarı Hikayeleri",
	"_postLinkBody": " ile reklamverenlerin Kanvas’ı nasıl kullandığını görelim.",
	"_link": "#/id/co-250",
	"_graphic": "adapt/css/assets/icon_nextPage.png",
	"_pageLevelProgress": {
		"_isEnabled": false
	}
},
{
	"_id": "c-210",
	"_parentId": "b-210",
	"_type": "component",
	"_component": "text",
	"_classes": "",
	"_layout": "full",
	"title": "",
	"displayTitle": "",
	"body": "Reklamverenlerin işletme hedeflerine ulaşmak için tam ekran Kanvas’ın kreatif potansiyelini nasıl kullandığını görelim.",
	"instruction": ""
},
{
	"_id": "c-220",
	"_parentId": "b-220",
	"_type": "component",
	"_component": "graphic",
	"_classes": "",
	"_layout": "full",
	"title": "BarkBox vaka çalışması",
	"displayTitle": "BarkBox",
	"body": "BarkBox mutlu köpeklere temalı oyuncaklar ve ödül mamaları gönderen aylık abonelik hizmetidir.  BarkBox, insanları hizmetine abone olmaya teşvik etmek amacıyla ödül maması ve oyuncak içeren paketleri hakkındaki bilinirliği artırmak için sürükleyici bir Kanvas kullandı.",
	"instruction": "",
	"_graphic": {
		"alt": "alternatif metin",
		"src": "course/en/images/05_case_studies/barkbox_banner.png",
		"attribution": ""
	},
	"_pageLevelProgress": {
		"_isEnabled": true
	}
},
{
	"_id": "c-225",
	"_parentId": "b-225",
	"_type": "component",
	"_component": "framed-video",
	"_classes": "",
	"_layout": "left",
	"title": "BarkBox Kanvas ünitesi",
	"displayTitle": "",
	"body": "",
	"_videoPosition": "top",
	"_videoPt": {
		"x": "0px",
		"y": "0px"
	},
	"_componentHeight": "650px",
	"_componentWidth": "350px",
	"instruction": "",
	"_items": [{
		"video": "<video controls poster='course/en/images/05_case_studies/barkbox_poster.png' id='vid' width='350px' controls='controls'><source src='course/en/video/barkbox_canvas.mp4' type='video/mp4'></video>"
	}]
},
{
	"_id": "c-226",
	"_parentId": "b-225",
	"_type": "component",
	"_component": "text",
	"_classes": "",
	"_layout": "right",
	"title": "BarkBox müşteri görüşü ve sonuçları",
	"displayTitle": "",
	"body": "<div style= 'color:#37bada;'><b>“Kanvas potansiyel müşterilere markanızı ve benzersiz ürünlerinizi sergileyen sürükleyici bir deneyim yaşatıyor ve “BarkBox Nedir?” hikayesini anlatıyor. Başarıyı yeni müşteri başına ücretle ölçüyoruz ve Kanvas bu anlamda tüm diğer reklam türlerinden önde. Kanvas başarılı ve ölçeklenebilir, bu sebeple bu reklamlar için daha fazla tekrar yapıyor, daha fazla zaman ayırıyor ve daha fazla bütçe harcıyoruz.”</b><br><br><div style= 'color:#aeb8ba;font-size:14px;line-height:14px;'>JORDAN DEODATO<br>Büyüme Bölüm Başkanı<br>BarkBox</div></div><br><br><b>Sonuçlar</b><br><br>Ağustos 2016 - Kasım 2016 arasındaki üç ayı aşkın bir dönemde şu sonuçlara ulaşıldı:<ul><li>Diğer reklam türlerine kıyasla 2,6 kat daha yüksek dönüşüm oranı</li><li>Diğer reklam türlerine kıyasla kazanılan yeni müşterilerde %5 artış</li><li>Kazanılan yeni müşteri başına ücrette %10 düşüş</li></ul><br><br><cite><a href='https://www.facebook.com/business/success/barkbox-2' target='_blank'>BarkBox – Facebook Başarı Hikayeleri</a></cite>",
	"instruction": "",
	"_pageLevelProgress": {
		"_isEnabled": true
	}
},
{
	"_id": "c-230",
	"_parentId": "b-230",
	"_type": "component",
	"_component": "graphic",
	"_classes": "",
	"_layout": "full",
	"title": "TYME vaka çalışması",
	"displayTitle": "TYME",
	"body": "TYME saç şekillendirme ürünleri üretiyor ve satıyor.  TYME, ürünlerini Avrupalı hedef kitleye tanıtmak için Facebook’un uluslararası hedefleme araçlarını ve sürükleyici Kanvas reklamlarını kullanmak istiyordu.",
	"instruction": "",
	"_graphic": {
		"alt": "alternatif metin",
		"src": "course/en/images/05_case_studies/tyme_banner.png",
		"attribution": ""
	},
	"_pageLevelProgress": {
		"_isEnabled": true
	}
},
{
	"_id": "c-235",
	"_parentId": "b-235",
	"_type": "component",
	"_component": "framed-video",
	"_classes": "",
	"_layout": "left",
	"title": "TYME Kanvas ünitesi",
	"displayTitle": "",
	"body": "",
	"_videoPosition": "top",
	"_videoPt": {
		"x": "0px",
		"y": "0px"
	},
	"_componentHeight": "650px",
	"_componentWidth": "350px",
	"instruction": "",
	"_items": [{
		"video": "<video controls poster='course/en/images/05_case_studies/tyme_poster.png' id='vid' width='350px' controls='controls'><source src='course/en/video/tyme_canvas.mp4' type='video/mp4'></video>"
	}]
},
{
	"_id": "c-236",
	"_parentId": "b-235",
	"_type": "component",
	"_component": "text",
	"_classes": "",
	"_layout": "right",
	"title": "TYME müşteri görüşü ve sonuçları",
	"displayTitle": "",
	"body": "<div style= 'color:#37bada;'><b>“Tek bir platformun dünyanın geri kalanı için bağlantı ve ticaret aracı olmasına bayılıyoruz; anlaması zor çılgınca bir şey! Her zaman insanlara şunu söylüyoruz: Şirketimizi 5 yıl önce kurmaya çalışsaydık, bunların yarısını bile başaramazdık.”</b><br><br><div style= 'color:#aeb8ba;font-size:14px;line-height:14px;'>KENDRICK REEG<br>Satış ve Pazarlama Başkanı<br>TYME</div></div><br><br><b>Sonuçlar</b><br><br>Aralık 2016 - Mart 2017 arasındaki üç ayı aşkın bir dönemde şu sonuçlara ulaşıldı:<ul><li>Huninin üst kısmında bilinirlik Kanvası için 1,6 kat reklam harcaması getirisi</li><li>Huninin orta kısmında eğitimsel Kanvas için 2,9 kat reklam harcaması getirisi</li><li>Kazanılan yeni müşteri başına ücrette %52 düşüş</li></ul><br><br><cite><a href='https://www.facebook.com/business/success/tyme-2' target='_blank'>TYME – Facebook Başarı Hikayeleri</a></cite>",
	"instruction": "",
	"_pageLevelProgress": {
		"_isEnabled": true
	}
},
{
	"_id": "c-240",
	"_parentId": "b-240",
	"_type": "component",
	"_component": "graphic",
	"_classes": "",
	"_layout": "full",
	"title": "Lowe’s Home Improvement vaka çalışması",
	"displayTitle": "Lowe’s Home Improvement",
	"body": "Dünyanın en büyük ev dekorasyon perakendecilerinden biri olan Lowe’s, ev yenileme fikirlerini paylaşmak ve genç ev sahiplerine Kendin Yap projeleri için ilham vermek için Kanvas’ı kullanmak istiyordu.  İzleyicileri, reklama dokunup tam ekran Kanvas deneyimini açarak tasarımın arkasındaki uzmanlığı görmeye teşvik eden çekici iç mekan ev görselleri ve mesajlar kullandılar.",
	"instruction": "",
	"_graphic": {
		"alt": "alternatif metin",
		"src": "course/en/images/05_case_studies/lowes_banner.png",
		"attribution": ""
	},
	"_pageLevelProgress": {
		"_isEnabled": true
	}
},
{
	"_id": "c-245",
	"_parentId": "b-245",
	"_type": "component",
	"_component": "framed-video",
	"_classes": "",
	"_layout": "left",
	"title": "Lowe’s Home Improvement Kanvas ünitesi",
	"displayTitle": "",
	"body": "",
	"_videoPosition": "top",
	"_videoPt": {
		"x": "0px",
		"y": "0px"
	},
	"_componentHeight": "650px",
	"_componentWidth": "350px",
	"instruction": "",
	"_items": [{
		"video": "<video controls poster='course/en/images/05_case_studies/lowes_poster.png' id='vid' width='350px' controls='controls'><source src='course/en/video/lowes_canvas.mp4' type='video/mp4'></video>"
	}]
},
{
	"_id": "c-246",
	"_parentId": "b-245",
	"_type": "component",
	"_component": "text",
	"_classes": "",
	"_layout": "right",
	"title": "Lowe’s Home Improvement müşteri görüşü ve sonuçları",
	"displayTitle": "",
	"body": "<div style= 'color:#37bada;'><b>“Facebook Kanvas, tipik Haber Kaynağı reklamının sınırlamalarından kurtularak ilgi çekici bir ev dekorasyonu hikayesi anlatabilmemizi sağladı. Bu sayede müşteriler platformdan ayrılmadan Lowe’s tarzını tam olarak anlayabildiler. Bu deneyim müşteriye, ilhamdan dönüşüme giden yolu kusursuz biçimde keşfetmek için benzersiz bir fırsat sunuyor.”</b><br><br><div style= 'color:#aeb8ba;font-size:14px;line-height:14px;'>BRAD WALTERS<br>Sosyal Medya ve İçerik Stratejisi Direktörü<br>Lowe’s Home Improvement</div></div><br><br><b>Sonuçlar</b><br><br>Kasım 2015 - Ocak 2016 arasındaki 10 ayı aşkın bir dönemde şu sonuçlara ulaşıldı:<ul><li>Kanvas’ta geçirilen ortalama 28 saniyelik süre*</li><li>Lowe’s tarafından yapılan ilişkilendirmeye göre 6,7 kat reklam harcaması getirisi</li></ul><br><br><cite><a href='https://www.facebook.com/business/success/lowes-home-improvement' target='_blank'>Lowe’s Home Improvement – Facebook Başarı Hikayeleri</a></cite>",
	"instruction": "",
	"_pageLevelProgress": {
		"_isEnabled": true
	}
},
{
	"_id": "c-250",
	"_parentId": "b-250",
	"_type": "component",
	"_component": "graphic",
	"_classes": "",
	"_layout": "full",
	"title": "Tesco vaka çalışması",
	"displayTitle": "Tesco",
	"body": "Tesco Sevgililer Günü için müşterilerini Tesco’nun en üst seviye ürün grubundan seçecekleri başlangıçlar, ana yemekler ve tatlılardan oluşan, kendilerine özel iki kişilik yemeklerini oluşturmaya davet etmek istiyordu.  Özel hazırlanmış sinematograflar, döngüler ve metinlerle kullanıcıların durup bakacağı tek bir reklam ünitesinde geniş ürün gamlarını sergilemek ve ilgi çekici bir Sevgililer Günü hikayesi anlatmak için Facebook’un tam ekran Kanvas deneyimini kullandılar.",
	"instruction": "",
	"_graphic": {
		"alt": "alternatif metin",
		"src": "course/en/images/05_case_studies/tesco_banner.png",
		"attribution": ""
	},
	"_pageLevelProgress": {
		"_isEnabled": true
	}
},
{
	"_id": "c-255",
	"_parentId": "b-255",
	"_type": "component",
	"_component": "framed-video",
	"_classes": "",
	"_layout": "left",
	"title": "Tesco Kanvas ünitesi",
	"displayTitle": "",
	"body": "",
	"_componentHeight": "650px",
	"_componentWidth": "380px",
	"_videoPosition": "top",
	"_videoPt": {
		"x": "0px",
		"y": "0px"
	},
	"instruction": "",
	"_items": [{
		"video": "<video controls poster='course/en/images/05_case_studies/tesco_poster.png' id='vid' width='300px' controls='controls'><source src='course/en/video/tesco_canvas.mp4' type='video/mp4'></video>"
	}]
},
{
	"_id": "c-256",
	"_parentId": "b-255",
	"_type": "component",
	"_component": "text",
	"_classes": "",
	"_layout": "right",
	"title": "Tesco müşteri görüşü ve sonuçları",
	"displayTitle": "",
	"body": "<div style= 'color:#37bada;'><b>“Kanvas, zengin ve sürükleyici bir deneyim içinde video, görsel döngüleri ve metinler kullanarak etkileyici bir içerik oluşturmamıza ve en üst seviye ürün grubumuz için sunduğumuz yemek fırsatını sergilememize olanak tanıdı. Artık müşterilerimiz ve markalarımız için önemli olan anlar hakkında etki yaratmak istediğimizde kesinlikle Kanvas’ı kullanmayı düşüneceğiz.”</b><br><br><div style= 'color:#aeb8ba;font-size:14px;line-height:14px;'>ALICIA HOWARD<br>Sosyal Medya Bölüm Başkanı<br>Tesco</div></div><br><br><b>Sonuçlar</b><br><br>4 günlük 2016 Sevgililer Günü kampanyası, kalpleri ısıtan sonuçlar elde etti:<li>Reklam hatırlanırlığında 11 puan artış</li><li>Ürün bilinirliğinde 17 puan artış</li><li>Erkek kullanıcılar arasında göz önünde bulundurma oranında 10 puan artış</li><li>Kanvas’ta geçirilen ortalama 60 saniyelik süre*</li><li>Erişilen 5,5 milyon kişi</li></ul><br><br><cite><a href='https://www.facebook.com/business/success/tesco' target='_blank'>Tesco – Facebook Başarı Hikayeleri</a></cite>",
	"instruction": "",
	"_pageLevelProgress": {
		"_isEnabled": true
	}
},
{
	"_id": "c-260",
	"_parentId": "b-260",
	"_type": "component",
	"_component": "graphic",
	"_classes": "",
	"_layout": "full",
	"title": "LVCVA vaka çalışması",
	"displayTitle": "Las Vegas Convention and Visitors Authority",
	"body": "Las Vegas Convention and Visitors Authority (LVCVA) Las Vegas’ın resmi turizm pazarlama kuruluşudur. Turizm kuruluşu, seyahat etmeyi düşünen kişileri tatillerini geçirmeleri için Las Vegas’a çekmek istiyordu.  LVCVA, bu kişilere şehrin çeşitli çekim noktalarını sergileyerek onları cezbetmek için Kanvas içinde 360 videoları kullandı.",
	"instruction": "",
	"_graphic": {
		"alt": "alternatif metin",
		"src": "course/en/images/05_case_studies/lvcva_banner.png",
		"attribution": ""
	},
	"_pageLevelProgress": {
		"_isEnabled": true
	}
},
{
	"_id": "c-265",
	"_parentId": "b-265",
	"_type": "component",
	"_component": "framed-video",
	"_classes": "",
	"_layout": "left",
	"title": "LVCVA Kanvas ünitesi",
	"displayTitle": "",
	"body": "",
	"_videoPosition": "top",
	"_componentHeight": "600px",
	"_videoPt": {
		"x": "0px",
		"y": "0px"
	},
	"instruction": "",
	"_items": [{
		"video": "<video controls poster='course/en/images/05_case_studies/lvcva_poster.png' id='vid' width='340px' controls='controls'><source src='course/en/video/lvcva_canvas.mp4' type='video/mp4'></video>"
	}]
},
{
	"_id": "c-266",
	"_parentId": "b-265",
	"_type": "component",
	"_component": "text",
	"_classes": "",
	"_layout": "right",
	"title": "LVCVA müşteri görüşü ve sonuçları",
	"displayTitle": "",
	"body": "<div style= 'color:#37bada;'><b>“LVCVA, 360 sanal gerçeklik videoları oluşturup bunları Facebook’ta paylaşarak Las Vegas’a gelecek insanların yaşayacağı deneyimlerin keyfini yansıttı. Facebook Haber Kaynağı’nda görüntülenen bu videolar Las Vegas’ın heyecanını sergiliyor ve ziyaretçilerde ilgi yaratıp onları bir seyahat rezervasyonu yaparak şehri ilk elden deneyimlemeye teşvik ediyor.”</b><br><br><div style= 'color:#aeb8ba;font-size:14px;line-height:14px;'>CATHY TULL<br>Kıdemli Başkan Yardımcısı, Pazarlama<br>Las Vegas Convention and Visitors Authority</div></div><br><br><b>Sonuçlar</b><br><br><ul><li>Kanvas için ortalama %41 görüntülenme oranı</li><li>360 video görüntülemesi başına 0,02$ ücret</li><li>%16 tıklama oranı</li></ul><br><br><cite><a href='https://www.facebook.com/business/success/lvcva-2' target='_blank'>Las Vegas Convention and Visitors Authority – Facebook Başarı Hikayeleri</a></cite>",
	"instruction": "",
	"_pageLevelProgress": {
		"_isEnabled": true
	}
},
{
	"_id": "c-290",
	"_parentId": "b-290",
	"_type": "component",
	"_component": "text",
	"_classes": "",
	"_layout": "full",
	"title": "Kanvas Görüntüleme Süresi Hakkında Not",
	"displayTitle": "",
	"body": "<hr><cite>*23 Kasım İtibariyle Kanvas Görüntüleme Süresinde Yapılan Değişiklik: Kanvas’ın Şubat ayında kullanıma sunulmasından itibaren reklamverenlerin Facebook’taki içeriklerde gezinme özelliğini giderek daha fazla kullandığını gördük (ör. Facebook tarayıcısının içinde açılan bir mikrosite). Artık sadece Kanvas’ta geçirilen süreye odaklanmak ve Facebook dışındaki süreyi dikkate almamak için Kanvas raporlama tanımımızı Kanvasta’ki başlangıç ve bitiş zamanları olarak değiştirdik. Sonuç olarak, insanlar Kanvas dışına gittiğinde Kanvas görüntüleme süresi ölçümümüz bunu takip etmeyecektir.</cite>",
	"instruction": "",
	"_pageLevelProgress": {
		"_isEnabled": true
	}
},
{
	"_id": "c-291",
	"_parentId": "b-290",
	"_type": "component",
	"_component": "co-jump",
	"_classes": "color-test",
	"_preLinkBody": "Şimdi sıradaki konuya geçelim ve bir Kanvas ünitesini ",
	"_linkBody": "Adım Adım",
	"_postLinkBody": " nasıl oluşturacağımızı görelim.",
	"_link": "#/id/co-300",
	"_graphic": "adapt/css/assets/icon_nextPage.png",
	"_pageLevelProgress": {
		"_isEnabled": false
	}
},
{
	"_id": "c-300",
	"_parentId": "b-300",
	"_type": "component",
	"_component": "text",
	"_classes": "",
	"_layout": "full",
	"title": "Tasarım teknik özellikleri",
	"displayTitle": "Tasarım teknik özellikleri",
	"body": "Başlamadan önce, mobil Haber Kaynağı’nda insanları çekmek için “olta” olarak kullanılan reklamın ve Kanvas ünitesinin kendisinin tasarımla ilgili bazı teknik özelliklerine bakalım.",
	"instruction": "",
	"_pageLevelProgress": {
		"_isEnabled": true
	}
},
{
	"_id": "c-305",
	"_parentId": "b-305",
	"_classes": "",
	"_type": "component",
	"_component": "hotgraphic",
	"_layout": "full",
	"title": "Tasarım teknik özelliklerinin detayları",
	"displayTitle": "",
	"body": "Kanvas ünitesinin çeşitli bileşenlerine yönelik tasarım teknik özelliklerini görmek için aşağıdaki noktalara tıklayın.",
	"mobileBody": "",
	"instruction": "",
	"mobileInstruction": "",
	"_useGraphicsAsPins": false,
	"_canCycleThroughPagination": false,
	"_hidePagination": false,
	"_setCompletionOn": "inview",
	"_graphic": {
		"src": "course/en/images/06_stepbystep/design_specs.png",
		"alt": "alternatif metin",
		"width": "800px"
	},
	"_items": [{
		"title": "Haber Kaynağı reklamı",
		"body": "Haber Kaynağı’ndaki reklam sola yaslanmış metinle uçtan uca görsel veya video içerir.<br><br>Görsel:<br><ul><li>Görsel En Boy Oranı: 1,9:1 (yatay) veya 1:1 (kare)</li><li>Görsel Boyutu: 1200 x 628 piksel (tavsiye edilen)</li><li><i>Not:</i> Reklamınızın görselindeki metin miktarı reklamınızın yayınını etkileyeceğinden görselinizde minimum düzeyde metin bulunmalıdır.</li><li>Metin: 90 karakter (tavsiye edilen)</li><li>Başlık: 45 karakter (tavsiye edilen)</li></ul><br>Video:<br><ul><li>Video En Boy Oranı: 16:9 (yatay), 1:1 (kare), 4:3 (dikey)</li><li>Video Boyutu: En fazla 4GB’a kadar</li><li>Video Sıkıştırma: H.264 video sıkıştırma, tercihen yüksek profil, kare pikselli, sabit kare hızı, tek seferde (progressive) tarama</li><li>Video Uzunluğu: Sadece hedef kitlenizin dikkatini çekmek için kullanılması gerektiğinden 15 saniyeden uzun olmaması tavsiye edilir</li><li>Metin: 90 karakter (tavsiye edilen)</li><li>Başlık: 45 karakter (tavsiye edilen)</li></ul><br>Döngü:<br><ul><li>Görsel Boyutu: 600 x 600 piksel (kare)</li><li>Görsel en boy oranı: 1:1</li><li>10 adede kadar görsel veya video</li><li>Metin: 90 karakter</li><li>Başlık: 40 karakter</li><li>Bağlantı açıklaması: 20 karakter</li><li><i>Not:</i> Reklamınızın görselindeki metin miktarı reklamınızın yayınını etkileyeceğinden görselinizde minimum düzeyde metin bulunmalıdır.</li></ul><br>Slayt Gösterisi:<br><ul><li>Görsel Boyutu: 1280 x 720 piksel</li><li>Görsel en boy oranı: 16:9 (yatay), 1:1 (kare), 4:3 (dikey) </li><li>Metin: 90 karakter </li><li>Görsellerin kırpılmaması için, aynı boyuta ve en boy oranına sahip görsellerin kullanılması tavsiye edilir</li><li><i>Not:</i> Reklamınızın görselindeki metin miktarı reklamınızın yayınını etkileyeceğinden görselinizde minimum düzeyde metin bulunmalıdır.</li></ul>",
		"_graphic": {
			"src": "course/en/images/06_stepbystep/link_ad.png",
			"alt": "alternatif metin",
			"_classes": ""
		},
		"pinAlt": "alt text",
		"strapline": "Haber Kaynağı Reklamı için teknik özellikler",
		"_classes": "top-left",
		"_top": 12,
		"_left": 9
	},
	{
		"title": "Logo içeren başlık",
		"body": "<ul><li>Görsel boyutu: 66 piksel (maksimum yükseklik) x 882 piksel (maksimum genişlik)</li><li>Dosya türü: şeffaf .png</li><li>Başlıklar ekranın üst kısmına tutturulur. Başlıkların sabitlenmesini istemiyorsanız, başlık yerine bir görsel veya metin bloğu kullanabilirsiniz.</li></ul>",
		"_graphic": {
			"src": "course/en/images/06_stepbystep/header.png",
			"alt": "alternatif metin",
			"_classes": ""
		},
		"pinAlt": "alt text",
		"strapline": "Logo içeren başlık için teknik özellikler",
		"_classes": "center",
		"_top": 8,
		"_left": 63
	},
	{
		"title": "Video",
		"body": "<ul><li>Minimum çözünürlük: 720p</li><li>Format: .mp4 veya .mov</li><li>Yatay/Dikey Format: Dikey format tavsiye edilir. Ayrıca videoların tam ekran olması tavsiye edilmez. <br><i>Not:</i> Yatay formattaki videolar otomatik olarak yeniden boyutlandırılır ve dikey oynatıcıda gösterilir. Bu durumda boyutları küçülür ve iki tarafta siyah kenarlıklar görünür.</li><li>Uzunluk: Kanvasınızda birden fazla video bulunabilir, ancak toplam süreleri 2 dakikayı geçemez.</li><li>Küçük Resim: Videonun ilk karesi olacaktır.</li></ul>",
		"_graphic": {
			"src": "course/en/images/06_stepbystep/autoplay_video.png",
			"alt": "alternatif metin",
			"_classes": ""
		},
		"pinAlt": "alt text",
		"strapline": "Otomatik oynatılan video için teknik özellikler",
		"_classes": "bottom-right",
		"_top": 13,
		"_left": 63
	},
	{
		"title": "Metin bloğu",
		"body": "<ul><li>Karakter: En fazla 500</li><li>Yazı boyutu: 6 punto ila 72 punto</li><li>Yazı rengi: #rrggbb</li><li>Yazı stili: Kalın, italik veya altı çizili (metin kutusunun tamamına uygulanmalıdır; kelimelere ayrı ayrı uygulanamaz)</li><li>Yazı hizalama: Sol, orta veya sağ</li><li>Seçenekler: Serif (çentikli) veya Sans Serif (çentiksiz)</li></ul>",
		"_graphic": {
			"src": "course/en/images/06_stepbystep/text_block.png",
			"alt": "alternatif metin",
			"_classes": ""
		},
		"pinAlt": "alt text",
		"strapline": "Metin bloğu için teknik özellikler",
		"_classes": "bottom-right",
		"_top": 19,
		"_left": 63
	},
	{
		"title": "Tam ekran görsel",
		"body": "<ul><li>Dosya türü: .png, .jpg</li><li>Görsel en boy oranı: Görseller, varsayılan olarak genişliği tam ekran kullanır.</li><li>Görsel boyutu: Tam genişliğe sahip bir görsel 1080 pikseldir ancak boyuna sığdır (kaydırmak için sağa/sola yatır) görüntüleme seçeneğiyle daha geniş görseller kullanabilirsiniz. 1920 piksel yüksekliğindeki görseller ekran yüksekliğini tamamen kaplar, ancak enine sığdır (genişletmek için dokun) görüntüleme seçeneğiyle daha uzun görseller kullanabilirsiniz.</li><li>Bir Kanvasta 20 adede kadar görsel kullanılabilir.</li></ul>",
		"_graphic": {
			"src": "course/en/images/06_stepbystep/image.png",
			"alt": "alternatif metin",
			"_classes": ""
		},
		"pinAlt": "alt text",
		"strapline": "Tam ekran görsel için teknik özellikler",
		"_classes": "bottom-right",
		"_top": 30,
		"_left": 63
	},
	{
		"title": "Görsel döngüsü",
		"body": "<ul><li>Dosya türü: .png veya .jpg</li><li>Görsel en boy oranı: Görseller ekranın tamamını veya bir kısmını kaplayabilir fakat tüm görseller aynı boyutta olmalıdır</li><li>Görsel Boyutu: 1080 piksel (maksimum genişlik) x 1920 piksel (maksimum yükseklik)</li><li>Döngü başına en fazla 10 görsel</li></ul>",
		"_graphic": {
			"src": "course/en/images/06_stepbystep/carousel.png",
			"alt": "alternatif metin",
			"_classes": ""
		},
		"pinAlt": "alt text",
		"strapline": "Görsel döngüsü için teknik özellikler",
		"_classes": "bottom-right",
		"_top": 44,
		"_left": 95
	},
	{
		"title": "Sağa/sola yatırılarak kaydırılabilen tam ekran görsel",
		"body": "<ul><li>Dosya türü: .png, .jpg</li><li>Görsel boyutu: Boyuna sığdır (kaydırmak için sağa/sola yatır) görüntüleme seçeneğini belirleyin. 1920 piksel yüksekliğindeki görseller ekran yüksekliğini tamamen kaplar, ancak enine sığdır (genişletmek için dokun) görüntüleme seçeneğiyle daha uzun görseller kullanabilirsiniz</li><li>Bir Kanvasta 20 adede kadar görsel kullanılabilir.</li></ul>",
		"_graphic": {
			"src": "course/en/images/06_stepbystep/tilt_to_pan.png",
			"alt": "alternatif metin",
			"_classes": ""
		},
		"pinAlt": "alt text",
		"strapline": "Sağa/sola yatırılarak kaydırılabilen görsel için teknik özellikler",
		"_classes": "bottom-right",
		"_top": 59,
		"_left": 80
	},
	{
		"title": "Ürün seti",
		"body": "<ul><li>Bu bileşeni kullanabilmek için bir ürün kataloğu yüklemiş olmanız gerekir.</li><li>Kanvas en iyi performans gösteren ürünleri dinamik olarak gösterdiği için birleştirilmiş pikselin doğru şekilde kurulması gerekir. Reklamverenler şu anda ürünlerin gösterilme sırasını seçememektedir.</li><li>40 adede kadar ürün gösterilebilir.</li></ul>",
		"_graphic": {
			"src": "course/en/images/06_stepbystep/product_set.png",
			"alt": "alternatif metin",
			"_classes": ""
		},
		"pinAlt": "alt text",
		"strapline": "Ürün seti için teknik özellikler",
		"_classes": "bottom-right",
		"_top": 75,
		"_left": 63
	},
	{
		"title": "Eylem çağrısı düğmesi",
		"body": "<ul><li>Yükseklik: 48 piksel üst ve alt ek boşluklu 48 piksel</li><li>Metin: Maksimum 30 karakter</li><li>Seçenekler: Serif (çentikli) veya Sans Serif (çentiksiz)</li></ul><br><br><i>Not:</i> İsterseniz Kanvastaki son bileşeniniz olarak Mağaza Bulucu’yu da kullanabilirsiniz.",
		"_graphic": {
			"src": "course/en/images/06_stepbystep/cta.png",
			"alt": "alternatif metin",
			"_classes": ""
		},
		"pinAlt": "alt text",
		"strapline": "Eylem çağrısı düğmesi teknik özellikleri",
		"_classes": "bottom-right",
		"_top": 93,
		"_left": 63
	}]
},
{
	"_id": "c-310",
	"_parentId": "b-310",
	"_type": "component",
	"_component": "text",
	"_classes": "",
	"_layout": "full",
	"title": "Facebook Reklamları Kılavuzu bağlantısı",
	"displayTitle": "",
	"body": "Tasarıma ilişkin en son teknik özellikler ve gereklilikler için lütfen <a href='https://www.facebook.com/business/ads-guide/clicks-to-website/canvas/?tab0=canvas&tab1=full-canvas' target='_blank'>Facebook Reklamları Kılavuzu</a>’na bakın.",
	"instruction": "",
	"_pageLevelProgress": {
		"_isEnabled": true
	}
},
{
	"_id": "c-320",
	"_parentId": "b-320",
	"_type": "component",
	"_component": "text",
	"_classes": "",
	"_layout": "full",
	"title": "Başlamadan önce",
	"displayTitle": "Başlamadan önce",
	"body": "İşletme hedefinizi ve hedef kitlenizi tanımlayın.  <br><br>Tek bir reklam verme amacına yönelik tasarım yapın ve markanız, misyonunuz ve ürünlerinizle uyumlu olmasını sağlayın.",
	"instruction": "",
	"_pageLevelProgress": {
		"_isEnabled": true
	}
},
{
	"_id": "c-325",
	"_parentId": "b-325",
	"_type": "component",
	"_component": "graphic",
	"_classes": "",
	"_layout": "full",
	"title": "Tasarım",
	"displayTitle": "Tasarım",
	"body": "Bir hikaye tahtası kullanarak başlayın.  İyi düşünülmüş, yaratıcı bir fikir geliştirin ve çeşitli medya unsurlarını, hedef kitlenizin hoşuna gidecek ve işletme hedefinizi destekleyen belirli bir eylemi gerçekleştirmeye teşvik edecek şekilde düzenleyin.",
	"instruction": "",
	"_graphic": {
		"alt": "alternatif metin",
		"large": "course/en/images/06_stepbystep/carousel_to_blueprint_canvas.png",
		"small": "course/en/images/06_stepbystep/carousel_to_blueprint_canvas.png",
		"attribution": ""
	},
	"_pageLevelProgress": {
		"_isEnabled": true
	}
},
{
	"_id": "c-326",
	"_parentId": "b-325",
	"_type": "component",
	"_component": "text",
	"_classes": "",
	"_layout": "full",
	"title": "Tasarım tavsiyeleri",
	"displayTitle": "",
	"body": "Planlama ve tasarım sürecinde aklınızda bulundurmanızı tavsiye ettiğimiz birkaç nokta:<br><br><b>Her şeyin mobil Haber Kaynağı’ndaki reklamla başladığını unutmayın.</b><ul><li>Hedef kitlenizi yakalamak için neyi ve nasıl “olta” olarak kullanacaksınız?</li><li>Kanvasa giriş noktası olarak görsel, video, döngü, slayt gösterisi veya koleksiyon mu kullanacaksınız?</li></ul><br><b>Kanvas, deneyimin kendisidir.</b><ul><li>Anlatmak istediğiniz hikaye ne?</li><li>Hikayenizi anlatmak için ne tür medya içerikleri kullanmak istiyorsunuz?</li><li>Bileşenlerin sıralaması üzerine düşünün. Hikayenizi anlatmak için medyanızı/bileşenlerinizi görsel ve sinematografik açıdan nasıl düzenleyeceksiniz?</li><li>Hedef kitlenizi bu interaktif yolculukta nasıl yönlendirmek istiyorsunuz?</li><li>Müşterilerinizi mobil sitenize yönlendirmek için bir eylem çağrısı düğmesi mi kullanacaksınız, yoksa Kanvasınızın son karesinde kaydırarak açma özelliğini mi etkinleştireceksiniz?  Kanvasınızı nereye bağlamak istiyorsunuz?  Başka bir Kanvasa mı bağlamak istiyorsunuz?  Müşterilerinizin kendilerine en yakın konumu keşfetmesine yardımcı olmak için Mağaza Bulucu’yu kullanmak istiyor musunuz?</li></ul>",
	"instruction": "",
	"_pageLevelProgress": {
		"_isEnabled": true
	}
},
{
	"_id": "c-330",
	"_parentId": "b-330",
	"_type": "component",
	"_component": "text",
	"_classes": "",
	"_layout": "full",
	"title": "Sonraki adımlar",
	"displayTitle": "Sonraki adımlar",
	"body": "Kanvasınızı nasıl oluşturmak istediğinizi seçin.<ul><li><a href='#/id/co-350'>Organik erişim için Kanvas oluşturun</a></li><li><a href='#/id/co-400'>Reklam Yöneticisi’ndeki şablonlarla Kanvas oluşturun</a></li><li><a href='#/id/co-450'>Kanvas Oluşturucu’yla Kanvas oluşturun</a></li></ul>",
	"instruction": "",
	"_pageLevelProgress": {
		"_isEnabled": true
	}
},
{
	"_id": "c-335",
	"_parentId": "b-330",
	"_type": "component",
	"_component": "text",
	"_classes": "",
	"_layout": "full",
	"title": "Kanvas API’si",
	"displayTitle": "",
	"body": "Alternatif olarak, Kanvaslarınızı Kanvas API’si üzerinden oluşturmanıza yardımcı olmaları için Facebook Pazarlama Ortaklarımızla çalışabilirsiniz.<br><br>Facebook Pazarlama Ortakları hedef kitlenizin dikkatini çekecek sürükleyici ve ilgi çekici reklamlar oluşturmanızı kolaylaştırır. Kanvaslarınızı reklam verme amaçlarınıza göre özelleştirilebilir ve sektörünüze özel şekilde oluşturabilirler. Ortaklar ayrıca, etki düzeyini değerlendirmek ve ileride oluşturacağınız reklamlar için veri sağlamak üzere detaylı istatistikler ve raporlar sağlayabilir ve değerli performans göstergelerini ortaya çıkarabilir. Ortaklar Kanvas ihtiyaçlarını karşılamak için kaliteli kaynaklara erişiminizi de kolaylaştırabilir.<br><br>Facebook reklamları satın almak ve özel ihtiyaçlarınız için destek bulmak üzere birlikte çalışabileceğiniz 40’ı aşkın ortağımız bulunmaktadır.<br><br>Facebook Pazarlama Ortakları hakkında daha fazla bilgi almak için lütfen <a href='http://facebookmarketingpartners.com' target='_blank'> facebookmarketingpartners.com</a> adresini ziyaret edin.",
	"instruction": "",
	"_pageLevelProgress": {
		"_isEnabled": true
	}
},
{
	"_id": "c-400",
	"_parentId": "b-400",
	"_type": "component",
	"_component": "text",
	"_classes": "",
	"_layout": "full",
	"title": "Kanvas Oluşturucu’ya Sayfanızın düzenleyicisinden erişme",
	"displayTitle": "Kanvas Oluşturucu’ya Sayfanızın düzenleyicisinden erişme",
	"body": "1. Sayfanızın düzenleyicisinden <b>Fotoğraf veya Video Paylaş</b> düğmesine tıklayın.<br><br>2. <b>Bir Kanvas Oluştur</b>’u seçin.<br><img src='course/en/images/07_organic/canvas_post1.png'><br><br>3. Kanvas Oluşturucu’yu açmak için <b>+</b> simgesine tıklayın. <br><img src='course/en/images/07_organic/canvas_post2.png'><br><br><i>Not:</i> Daha önce oluşturduğunuz bir Kanvas varsa, açılır menüden seçmek için metin kutusuna tıklayabilir ve ardından Yayınla’ya tıklayarak paylaşabilirsiniz.",
	"instruction": "",
	"_pageLevelProgress": {
		"_isEnabled": true
	}
},
{
	"_id": "c-410",
	"_parentId": "b-410",
	"_type": "component",
	"_component": "text",
	"_classes": "",
	"_layout": "full",
	"title": "Kanvas Oluşturucu’ya Sayfanızın Yayınlama Araçlarından erişme",
	"displayTitle": "Kanvas Oluşturucu’ya Sayfanızın Yayınlama Araçlarından erişme",
	"body": "1. Alternatif olarak, Sayfanızda <b>Yayınlama Araçları</b>’na tıklayarak Kanvas Oluşturucu’ya erişebilirsiniz.<br>2. Sol menüden <b>Kanvas</b>’ı seçin.<br>3. Daha sonra <b>Oluştur</b>’a tıklayın.<br><img src='course/en/images/07_organic/publishing_tools.png'>",
	"instruction": "",
	"_pageLevelProgress": {
		"_isEnabled": true
	}
},
{
	"_id": "c-420",
	"_parentId": "b-420",
	"_type": "component",
	"_component": "text",
	"_classes": "",
	"_layout": "full",
	"title": "Sonraki adım",
	"displayTitle": "Sonraki adım",
	"body": "Organik erişim için Kanvas oluşturmak üzere Sayfanızdan Kanvas Oluşturucu’ya nasıl erişeceğinizi öğrendiniz. Sıradaki adım Kanvas Oluşturucu’da Kanvasınızı oluşturmak.",
	"instruction": "",
	"_pageLevelProgress": {
		"_isEnabled": true
	}
},
{
	"_id": "c-430",
	"_parentId": "b-430",
	"_type": "component",
	"_component": "co-jump",
	"_classes": "color-test",
	"_preLinkBody": "Şimdiki konumuz ",
	"_linkBody": "Kanvasınızı Oluşturmak İçin Kanvas Oluşturucu’yu Kullanma",
	"_postLinkBody": ".",
	"_link": "#/id/co-450",
	"_graphic": "adapt/css/assets/icon_nextPage.png",
	"_pageLevelProgress": {
		"_isEnabled": false
	}
},
{
	"_id": "c-500",
	"_parentId": "b-500",
	"_type": "component",
	"_component": "text",
	"_classes": "",
	"_layout": "full",
	"title": "Giriş",
	"displayTitle": "",
	"body": "Kullanımı kolay tam ekran Kanvas şablonlarımız Reklam Yöneticisi ve Power Editor içinden tam ekran bir deneyim oluşturmayı kolay hale getirir. Reklamverenler şimdi tam ekran bir Kanvas deneyimini hızlıca oluşturmak için materyallerini bir şablona sürükleyip bırakabilirler. Bu şablonlar yeni müşteri kazanma, bilinirliği artırma ve alışveriş gibi, tam ekran Kanvas deneyiminin iyi performans gösterdiği bilinen belirli reklam verme amaçlarına odaklanır.",
	"instruction": "",
	"_pageLevelProgress": {
		"_isEnabled": true
	}
},
{
	"_id": "c-510",
	"_parentId": "b-510",
	"_type": "component",
	"_component": "text",
	"_classes": "",
	"_layout": "full",
	"title": "",
	"displayTitle": "",
	"body": "<ol><li><a href='https://www.facebook.com/ads/manager/creation' target='_blank'>Reklam Yöneticisi</a> veya <a href='https://www.facebook.com/ads/manage/powereditor' target='_blank'>Power Editor</a>’a gidin.</li><li>İşletme hedefinize uygun bir reklam verme amacı seçin ve Devam’a tıklayın.</li><li>Hedef kitlenizi, bütçenizi ve planınızı tanımlayın ve Devam’a tıklayın.</li><li>Reklam düzeyinde, reklamınız için Facebook Sayfasını seçin.</li><li>Haber Kaynağı’nda kullanmak istediğiniz reklam formatını seçin.<br><img src='course/en/images/08_inline_creation/formats.png'></li><li>Tam Ekran Kanvas Deneyimi kısmında <b>Tam ekran bir Kanvas ekleyin</b>’i seçin.</li><li>Reklam verme amacınıza uygun hızlı Kanvas oluşturma şablonlarından birini seçmek için şablon önizlemesindeki <b>Şablonu Kullan</b> düğmesine tıklayın.<br><img src='course/en/images/08_inline_creation/3templates.png'></li><li>Bir Kanvas Oluştur penceresi açılacaktır.</li><li>Metni, görselleri ve videoları değiştirerek bu şablondaki çeşitli bileşenleri düzenleyebilirsiniz.<br><img src='course/en/images/08_inline_creation/edit_canvas.png'></li><li>Kanvastaki bileşenleri istediğiniz gibi düzenlemeyi tamamladıktan sonra bu reklamın mobil cihazınızda nasıl görüneceğini görmek için <b>Mobilde Gözden Geçir</b>’e tıklayın.</li><li>Kanvasınızı gözden geçirdikten sonra, Kanvasınızı kaydedip Kanvası Düzenle penceresinden çıkmak için <b>Bitti</b>’ye tıklayın.</li><br>Yeni Kanvasınız şimdi Tam Ekran Deneyim kısmında görünecektir.  Kanvasınızı tekrar kullanmak için istediğiniz zaman kütüphanenize geri dönebilirsiniz.<br><img src='course/en/images/08_inline_creation/save_finish.png'><br><br><li>Reklamınıza bir başlık (25 karakterden oluşması tavsiye edilir) ve metin (90 karakterden oluşması tavsiye edilir) ekleyin.</li><li>Ardından reklamınızı tamamlamak için <b>Sipariş Ver</b>’e tıklayın.</li></ol>",
	"instruction": "",
	"_pageLevelProgress": {
		"_isEnabled": true
	}
},
{
	"_id": "c-580",
	"_parentId": "b-580",
	"_type": "component",
	"_component": "text",
	"_classes": "",
	"_layout": "full",
	"title": "",
	"displayTitle": "",
	"body": "Kanvas oluşturmanın başka bir yöntemini öğrenmek isterseniz lütfen aşağıdan seçim yapın. Diğer durumda Ölçümler modülüne devam edebilirsiniz.<br><br><ul><li><a href='#/id/co-350'>Organik erişim için Kanvas oluşturun</a></li><li><a href='#/id/co-450'>Kanvas Oluşturucu’yla Kanvas oluşturun</a></li></ul>",
	"instruction": "",
	"_pageLevelProgress": {
		"_isEnabled": true
	}
},
{
	"_id": "c-590",
	"_parentId": "b-590",
	"_type": "component",
	"_component": "co-jump",
	"_classes": "color-test",
	"_preLinkBody": "Şimdi Kanvas’la ilgili son konumuza geçelim:",
	"_linkBody": "Ölçümler",
	"_postLinkBody": ".",
	"_link": "#/id/co-500",
	"_graphic": "adapt/css/assets/icon_nextPage.png",
	"_pageLevelProgress": {
		"_isEnabled": false
	}
},
{
	"_id": "c-600",
	"_parentId": "b-600",
	"_type": "component",
	"_component": "graphic",
	"_classes": "",
	"_layout": "full",
	"title": "Kanvasınızı oluşturun",
	"displayTitle": "Kanvasınızı oluşturun",
	"body": "Kanvas Oluşturucu yeni bir pencerede açılır. İlk defa Kanvas oluşturuyorsanız, turu inceleyerek başlangıç yapmanızı tavsiye ederiz.  <br><br>Başlamanıza yardımcı olması için mevcut şablonlardan birini de kullanabilirsiniz.  Bu modülün ilerleyen kısımlarında <a href='#templates'>Şablonlar</a> hakkında daha detaylı bilgi vereceğiz.<br><br>1. Başlamak için <b>Boş Kanvas açın</b>’ı seçin.",
	"instruction": "",
	"_graphic": {
		"alt": "alternatif metin",
		"src": "course/en/images/06_stepbystep/00_welcome.png",
		"attribution": ""
	},
	"_pageLevelProgress": {
		"_isEnabled": true
	}
},
{
	"_id": "c-611",
	"_parentId": "b-610",
	"_type": "component",
	"_component": "graphic",
	"_classes": "",
	"_layout": "full",
	"title": "2. Adım",
	"displayTitle": "",
	"body": "2. Kanvasınıza eklemek istediğiniz bileşenleri seçin ve <b>Tamam</b>’a tıklayın.<br><br>Örneğimizde Kanvasımıza bir başlık, fotoğraf ve düğme ekleyeceğiz. <br><br><i>Not:</i>  Mağaza Bulucu bileşeni Kanvas tarafından desteklenen reklam verme amaçları için kullanılabilir.  Bu bileşeni sadece Reklam Yöneticisi veya Power Editor’da Kanvas oluşturuyorsanız ve sayfa konumlarını etkinleştirdiyseniz kullanabilirsiniz. Sayfa yayınlama araçları veya sayfa düzenleyicide Mağaza Bulucu bileşenini görmezsiniz.<br><br><i>Not:</i> Kanvasınıza istediğiniz zaman ilave bileşenler eklemek için sol üst köşedeki Bileşenler düğmesini de kullanabilirsiniz.",
	"instruction": "",
	"_graphic": {
		"alt": "alternatif metin",
		"src": "course/en/images/06_stepbystep/02_select_components.png",
		"attribution": ""
	},
	"_pageLevelProgress": {
		"_isEnabled": false
	}
},
{
	"_id": "c-612",
	"_parentId": "b-610",
	"_type": "component",
	"_component": "graphic",
	"_classes": "",
	"_layout": "full",
	"title": "3. ve 4. Adımlar",
	"displayTitle": "",
	"body": "3. Kanvasınıza bir ad verin.<br>4. Ardından bir tema seçerek Kanvasınızın görünümünü özelleştirin.",
	"instruction": "",
	"_graphic": {
		"alt": "alternatif metin",
		"src": "course/en/images/06_stepbystep/04_select_theme.png",
		"attribution": ""
	},
	"_pageLevelProgress": {
		"_isEnabled": false
	}
},
{
	"_id": "c-615",
	"_parentId": "b-615",
	"_type": "component",
	"_component": "graphic",
	"_classes": "",
	"_layout": "full",
	"title": "5. Adım",
	"displayTitle": "",
	"body": "5. Başlık kısmındaki <b>Fotoğraf Yükle</b> düğmesine tıklayarak başlığınıza bir görsel ekleyebilirsiniz.",
	"instruction": "",
	"_graphic": {
		"alt": "alternatif metin",
		"src": "course/en/images/06_stepbystep/05_header_photo.png",
		"attribution": ""
	},
	"_pageLevelProgress": {
		"_isEnabled": false
	}
},
{
	"_id": "c-616",
	"_parentId": "b-615",
	"_type": "component",
	"_component": "graphic",
	"_classes": "",
	"_layout": "full",
	"title": "6. Adım",
	"displayTitle": "",
	"body": "6. Bir arkaplan rengi ekleyerek ve arkaplan opaklığını değiştirerek başlığınızı daha da özelleştirebilirsiniz.<br><br>Kanvas ünitenizin önizlemesini sağ tarafta göreceksiniz.",
	"instruction": "",
	"_graphic": {
		"alt": "alternatif metin",
		"src": "course/en/images/06_stepbystep/06_customize_preview_header.png",
		"attribution": ""
	},
	"_pageLevelProgress": {
		"_isEnabled": false
	}
},
{
	"_id": "c-620",
	"_parentId": "b-620",
	"_type": "component",
	"_component": "graphic",
	"_classes": "",
	"_layout": "full",
	"title": "7. Adım",
	"displayTitle": "",
	"body": "7. Kanvasınızda kullanmak üzere bir görsel yükleyebilirsiniz.  Fotoğraf kısmında <b>Fotoğraf Yükle</b>’ye tıklayın.",
	"instruction": "",
	"_graphic": {
		"alt": "alternatif metin",
		"src": "course/en/images/06_stepbystep/07_upload_photo.png",
		"attribution": ""
	},
	"_pageLevelProgress": {
		"_isEnabled": false
	}
},
{
	"_id": "c-621",
	"_parentId": "b-620",
	"_type": "component",
	"_component": "graphic",
	"_classes": "",
	"_layout": "full",
	"title": "8. Adım",
	"displayTitle": "",
	"body": "8. Görseliniz için çeşitli görsel yerleşim seçenekleri arasından seçim yapabilirsiniz.<br><br><ul><li><b>Enine Sığdır (Bağlantı Verilebilir)</b> — Bu varsayılan seçenek, görseli izleyicinin ekranının enine sığdırır.  Görseliniz için belirli bir genişliği korumak ve bağlantı verilebilir durumda kalmasını sağlamak için bu seçeneği kullanın.</li><li><b>Enine Sığdır (Genişletmek İçin Dokun)</b> — Bu seçenek de görseli izleyicinin ekranının enine sığdırır ve izleyicinin görsele dokunarak tam boyutunda görüntülemesini sağlar.</li><li><b>Boyuna Sığdır (Kaydırmak İçin Sağa/Sola Yatır)</b> — Görseli izleyicinin ekranının boyuna sığdırmak için bu seçeneği kullanın ve kaydırmak için sağa/sola yatırma efekti oluşturmak için etkinleştirin.</li></ul>",
	"instruction": "",
	"_graphic": {
		"alt": "alternatif metin",
		"src": "course/en/images/06_stepbystep/08_photo_layout_options.png",
		"attribution": ""
	},
	"_pageLevelProgress": {
		"_isEnabled": false
	}
},
{
	"_id": "c-625",
	"_parentId": "b-625",
	"_type": "component",
	"_component": "graphic",
	"_classes": "",
	"_layout": "full",
	"title": "9. Adım",
	"displayTitle": "",
	"body": "9. Kanvas Oluşturucu penceresinin sol üst kısmındaki <b>Bileşen Ekle</b> düğmesine tıklayarak Kanvas ünitenize ilave bileşenler ekleyebilirsiniz.",
	"instruction": "",
	"_graphic": {
		"alt": "alternatif metin",
		"large": "course/en/images/06_stepbystep/09_add_component.png",
		"small": "course/en/images/06_stepbystep/09_add_component.png",
		"attribution": ""
	},
	"_pageLevelProgress": {
		"_isEnabled": false
	}
},
{
	"_id": "c-626",
	"_parentId": "b-625",
	"_type": "component",
	"_component": "graphic",
	"_classes": "",
	"_layout": "full",
	"title": "10. Adım",
	"displayTitle": "",
	"body": "10. Eklemek istediğiniz bileşeni seçin ve <b>Tamam</b>’a tıklayın.  <br><br>Bu örnekte Kanvasımıza bir döngü ve video bileşeni ekleyeceğiz.",
	"instruction": "",
	"_graphic": {
		"alt": "alternatif metin",
		"large": "course/en/images/06_stepbystep/10_select_component.png",
		"small": "course/en/images/06_stepbystep/10_select_component.png",
		"attribution": ""
	},
	"_pageLevelProgress": {
		"_isEnabled": false
	}
},
{
	"_id": "c-630",
	"_parentId": "b-630",
	"_type": "component",
	"_component": "graphic",
	"_classes": "",
	"_layout": "full",
	"title": "11. Adım",
	"displayTitle": "",
	"body": "11. Döngünüze eklemek üzere bir görsel seçmek için Döngü kısmında <b>Görsel Yükle</b>’ye tıklayın.",
	"instruction": "",
	"_graphic": {
		"alt": "alternatif metin",
		"src": "course/en/images/06_stepbystep/11_upload_carousel1.png",
		"attribution": ""
	},
	"_pageLevelProgress": {
		"_isEnabled": false
	}
},
{
	"_id": "c-631",
	"_parentId": "b-630",
	"_type": "component",
	"_component": "graphic",
	"_classes": "",
	"_layout": "full",
	"title": "12. Adım",
	"displayTitle": "",
	"body": "12. Ardından ilgili döngü kartı için Hedef URL’yi girin.",
	"instruction": "",
	"_graphic": {
		"alt": "alternatif metin",
		"src": "course/en/images/06_stepbystep/12_carousel_destination.png",
		"attribution": ""
	},
	"_pageLevelProgress": {
		"_isEnabled": false
	}
},
{
	"_id": "c-632",
	"_parentId": "b-630",
	"_type": "component",
	"_component": "graphic",
	"_classes": "",
	"_layout": "full",
	"title": "13. ve 14. Adımlar",
	"displayTitle": "",
	"body": "13. Döngünüze görsel ekleme ve yükleme işlemine devam edin.  Döngünüzde 2-10 adet görsel kullanabilirsiniz.<br><br>14. Ardından Döngünüz için bir yerleşim seçeneği belirleyin.",
	"instruction": "",
	"_graphic": {
		"alt": "alternatif metin",
		"src": "course/en/images/06_stepbystep/14_carousel_layout.png",
		"attribution": ""
	},
	"_pageLevelProgress": {
		"_isEnabled": false
	}
},
{
	"_id": "c-635",
	"_parentId": "b-635",
	"_type": "component",
	"_component": "graphic",
	"_classes": "",
	"_layout": "full",
	"title": "15. Adım",
	"displayTitle": "",
	"body": "15. Döngünüze eklemek üzere bir medya dosyası seçmek için Video kısmında <b>Video Yükle</b>’ye tıklayın.<br><br>Burada Kanvasınızda otomatik oynatılacak normal bir video kullanabilir veya izleyicinin video oynarken farklı hareket edip farklı perspektifleri görmesini sağlayan bir 360 video kullanabilirsiniz.",
	"instruction": "",
	"_graphic": {
		"alt": "alternatif metin",
		"src": "course/en/images/06_stepbystep/15_upload_video.png",
		"attribution": ""
	},
	"_pageLevelProgress": {
		"_isEnabled": false
	}
},
{
	"_id": "c-636",
	"_parentId": "b-635",
	"_type": "component",
	"_component": "graphic",
	"_classes": "",
	"_layout": "full",
	"title": "16. Adım",
	"displayTitle": "",
	"body": "16. Videonuz yüklendikten sonra videonuz için bir yerleşim seçeneği belirleyebilirsiniz.<br><br><i>Not:</i> Boyuna Sığdır seçeneği burada videonuz için görünümü kaydırmak için sağa/sola yatırmayı etkinleştirecektir.",
	"instruction": "",
	"_graphic": {
		"alt": "alternatif metin",
		"src": "course/en/images/06_stepbystep/16_video_layout.png",
		"attribution": ""
	},
	"_pageLevelProgress": {
		"_isEnabled": false
	}
},
{
	"_id": "c-640",
	"_parentId": "b-640",
	"_type": "component",
	"_component": "graphic",
	"_classes": "",
	"_layout": "full",
	"title": "17. Adım",
	"displayTitle": "",
	"body": "17. Kanvasınızdaki bileşenleri yeniden sıralamak için her bir bileşenin sağ üst köşesindeki yukarı veya aşağı ok simgesine tıklayın.  İzleyicileri daha fazla eylemde bulunmaya teşvik etmek için eylem çağrısı düğmenizi Kanvasın sonuna almanızı tavsiye ederiz.<br><br>Kanvastan bir bileşeni silmek için aşağı ok işaretinin sağındaki Diğer Seçenekler’e tıklayın ve Sil’i seçin.",
	"instruction": "",
	"_graphic": {
		"alt": "alternatif metin",
		"src": "course/en/images/06_stepbystep/17_reorder_components.png",
		"attribution": ""
	},
	"_pageLevelProgress": {
		"_isEnabled": false
	}
},
{
	"_id": "c-641",
	"_parentId": "b-640",
	"_type": "component",
	"_component": "graphic",
	"_classes": "",
	"_layout": "full",
	"title": "18. Adım",
	"displayTitle": "",
	"body": "18. Eylem çağrısı düğmeniz için kullanmak istediğiniz metni ekleyin. İsterseniz düğmenizin stilini de özelleştirebilirsiniz.",
	"instruction": "",
	"_graphic": {
		"alt": "alternatif metin",
		"src": "course/en/images/06_stepbystep/18_button_text_style.png",
		"attribution": ""
	},
	"_pageLevelProgress": {
		"_isEnabled": false
	}
},
{
	"_id": "c-642",
	"_parentId": "b-640",
	"_type": "component",
	"_component": "graphic",
	"_classes": "",
	"_layout": "full",
	"title": "Eylem Çağrısı Yönlendirme Hedefi Seçenekleri",
	"displayTitle": "",
	"body": "Burada düğmeniz için bir yönlendirme hedefi seçebilirsiniz.  Bir internet adresi (URL) bağlantısı ile bir internet sitesine bağlantı verebilir ya da oluşturduğunuz başka bir Kanvas ünitesiyle bağlantı kurabilirsiniz.  Başka Kanvaslar oluşturduysanız, bunları metin alanına tıklayarak adlarına göre seçebilirsiniz.",
	"instruction": "",
	"_graphic": {
		"alt": "alternatif metin",
		"src": "course/en/images/06_stepbystep/18_button_destination.png",
		"attribution": ""
	},
	"_pageLevelProgress": {
		"_isEnabled": false
	}
},
{
	"_id": "c-643",
	"_parentId": "b-640",
	"_type": "component",
	"_component": "graphic",
	"_classes": "",
	"_layout": "full",
	"title": "19. Adım",
	"displayTitle": "",
	"body": "Kanvasınız için gereken şekilde bileşenler eklemeye ve düzenlemeye devam edin.  <br><br>19. Çalışmanızın kaydedildiğinden emin olmak için düzenli aralıklarla <b>Kaydet</b>’e tıklayın.",
	"instruction": "",
	"_graphic": {
		"alt": "alternatif metin",
		"src": "course/en/images/06_stepbystep/19_save.png",
		"attribution": ""
	},
	"_pageLevelProgress": {
		"_isEnabled": false
	}
},
{
	"_id": "c-645",
	"_parentId": "b-645",
	"_type": "component",
	"_component": "graphic",
	"_classes": "",
	"_layout": "full",
	"title": "Kanvasınızın önizlemesini inceleyin",
	"displayTitle": "Kanvasınızın önizlemesini inceleyin",
	"body": "Kanvasınızı oluşturup değişiklikler yaparken önizlemesini incelemeyi unutmayın.  Ayrıca Kanvasınızı yayınlamadan önce Kanvas deneyiminin tamamını incelemek ve izleyicilerinizin ne göreceğini görmek için Cihazda önizlemesini gör özelliğini kullanabilirsiniz.  Görsel boyutları ve diğer özellikler iki cihaz arasında değişiklik gösterebildiği için Kanvasınızın hem iOS hem de Android’de önizlemesini incelemeyi unutmayın.<br><br>20. Kanvas Oluşturucu’da <b>Cihazda önizlemesini gör</b> simgesine tıklayın.  <br><br>21. Kanvasınızın önizlemesini cep telefonunuzda görebileceğinizi bildiren bir bildirim alacaksınız.  <b>Tamam</b>’a tıklayın.",
	"instruction": "",
	"_graphic": {
		"alt": "alternatif metin",
		"src": "course/en/images/06_stepbystep/20_21_mobile_canvas_preview.png",
		"attribution": ""
	},
	"_pageLevelProgress": {
		"_isEnabled": true
	}
},
{
	"_id": "c-650",
	"_parentId": "b-650",
	"_type": "component",
	"_component": "graphic",
	"_classes": "",
	"_layout": "full",
	"title": "Kanvasınızı bitirin",
	"displayTitle": "Kanvasınızı bitirin",
	"body": "22. Kanvas Oluşturucu’da Kanvasınızı oluşturup önizlemesini incelemeyi tamamladıktan sonra <b>Bitir</b>’i seçin.<br><br><i>Not:</i>  Kanvasınızı yayından kaldıramayacağınız için lütfen ilerlemeden önce önizlemesini inceleyip son halini verdiğinizden emin olun.<br><br>23. İşinizin bittiğini onaylamak için <b>Bitir</b>’e tıklayın.",
	"instruction": "",
	"_graphic": {
		"alt": "alternatif metin",
		"src": "course/en/images/06_stepbystep/22_23_finish_confirm.png",
		"attribution": ""
	},
	"_pageLevelProgress": {
		"_isEnabled": true
	}
},
{
	"_id": "c-655",
	"_parentId": "b-655",
	"_type": "component",
	"_component": "graphic",
	"_classes": "",
	"_layout": "full",
	"title": "Kanvas URL’sini alın",
	"displayTitle": "Kanvas URL’sini alın",
	"body": "24. Kanvasın URL’sini oluşturmak için <b>URL’yi Al</b>’a tıklayın.  <br><br>25. URL’yi kopyalama panonuza kopyalayın. İşiniz bittiğinde <b>Kapat</b> simgesine tıklayın.<br><br><i>Not:</i> Bu URL’yi artık Reklam Oluşturma Aracı’nda mobil Haber Kaynağı’ndaki reklamınızı Kanvas’a bağlamak için kullanabilirsiniz. Reklam Oluşturma Aracı’ndaysanız, reklam verme amacınızı seçtikten sonra bağlantıyı <b>Tanıtımı yapılacak URL’yi girin</b> alanına yapıştırın. Ayrıca Kanvas metin alanına tıklayarak Kanvasınızı adına göre seçebilirsiniz.",
	"instruction": "",
	"_graphic": {
		"alt": "alternatif metin",
		"src": "course/en/images/06_stepbystep/24_25_get_copy_url.png",
		"attribution": ""
	},
	"_pageLevelProgress": {
		"_isEnabled": true
	}
},
{
	"_id": "c-656",
	"_parentId": "b-655",
	"_type": "component",
	"_component": "text",
	"_classes": "",
	"_layout": "full",
	"title": "",
	"displayTitle": "",
	"body": "26. İşiniz bittiğinde Reklam Oluşturma akışına dönmek için Kanvas Oluşturucu aracının sağ üst köşesindeki <b>Kapat</b> simgesine tıklayın.",
	"instruction": "",
	"_pageLevelProgress": {
		"_isEnabled": false
	}
},
{
	"_id": "c-660",
	"_parentId": "b-660",
	"_type": "component",
	"_component": "graphic",
	"_classes": "",
	"_layout": "full",
	"title": "Tamamladığınız Kanvası bir reklama ekleyin",
	"displayTitle": "Tamamladığınız Kanvası bir reklama ekleyin",
	"body": "27. Reklam oluşturma arayüzüne döndüğünüzde, bitirdiğiniz Kanvası adına göre seçebilmeniz gerekir.<br><br>Reklamınızı mobil Haber Kaynağı’ndan Kanvasa bağlamak üzere kullanmak istediğiniz fotoğraf, video, döngü, slayt gösterisi veya koleksiyonu da seçmeyi unutmayın.  Ayrıca izleyicilerinizi Haber Kaynağı’ndan Kanvasınıza tıklamaya teşvik etmek için ipuçları oluşturmanızı tavsiye ederiz.<br><br> Reklamınızın mobil Haber Kaynağı’nda nasıl görüneceğini sağ tarafta görebilirsiniz.<br><br>28. İşinizi bitirip reklamınız için sipariş vermeye hazır olduğunuzda <b>Sipariş Ver</b>’e tıklayın.",
	"instruction": "",
	"_graphic": {
		"alt": "alternatif metin",
		"src": "course/en/images/06_stepbystep/27_28_preview_place_order.png",
		"attribution": ""
	},
	"_pageLevelProgress": {
		"_isEnabled": true
	}
},
{
	"_id": "c-665",
	"_parentId": "b-665",
	"_type": "component",
	"_component": "text",
	"_classes": "",
	"_layout": "full",
	"title": "Kanvas Oluşturucu’da şablonları kullanma",
	"displayTitle": "Kanvas Oluşturucu’da şablonları kullanma",
	"body": "<a name='templates'></a>Şablonlarımız reklamverenlerin Kanvas oluşturmasını kolay hale getirir.  Şablonlar fikir üretmek ve Kanvas oluşturma süreçlerine yardım etmek üzere sağlanır ve yaygın kullanım durumları ve medya içerikleri temel alınarak tasarlanır.  Bu kolay kullanımlı şablonlar reklamverenlerin pazarlama hedefleri için etkili olacak bir Kanvası hızla oluşturmaya başlamasına yardımcı olmayı amaçlar.<br><br>Şablonlar hemen kullanılmaya hazırdır ve Kanvaslara ilişkin en iyi uygulamalarımızı kapsarlar.  Bunlara ek olarak şablonlar tamamen özelleştirilebilir niteliktedir.  İsteğinize göre temel şablona bileşenler ekleyebilir veya şablondaki bileşenleri değiştirebilirsiniz.",
	"instruction": "",
	"_pageLevelProgress": {
		"_isEnabled": true
	}
},
{
	"_id": "c-666",
	"_parentId": "b-665",
	"_type": "component",
	"_component": "graphic",
	"_classes": "",
	"_layout": "full",
	"title": "",
	"displayTitle": "",
	"body": "<h2>Şablonlara erişme</h2>Şablonlara Kanvas Oluşturucu’nun ana ekranından erişilebilir.  Şablonları indirebilir veya Kanvas Oluşturucu içinden erişebilirsiniz.  Şablonlara erişmek için <b>Şablonları Keşfet</b> kısmının sağ tarafındaki açılır menüye tıklayın.",
	"instruction": "",
	"_graphic": {
		"alt": "alternatif metin",
		"src": "course/en/images/07_templates/homescreen.png",
		"attribution": ""
	},
	"_pageLevelProgress": {
		"_isEnabled": true
	}
},
{
	"_id": "c-667",
	"_parentId": "b-665",
	"_type": "component",
	"_component": "graphic",
	"_classes": "",
	"_layout": "full",
	"title": "Şablonları indirme",
	"displayTitle": "",
	"body": "<h2>Şablonları indirme</h2><br>Şablonlar indirilirken bir şablon kılavuzu ve Photoshop dosyası da birlikte sağlanır.<ul><li>Şablon kılavuzu - İlgili şablona ilişkin bir açıklama ve önerilen kullanım durumları ile birlikte gerekli teknik özellikler ve tavsiyelere genel bir bakış içeren bir PDF dosyası sağlanır.</li><li>Photoshop dosyası - Photoshop dosyası kreatifin modelini oluşturmanız için sağlanır.</li></ul><br><ol><li>Reklam verme amacınıza veya hedefinize göre kullanmak istediğiniz şablonu seçin.<br><br>Şablonun önizlemesini sağ tarafta görebilirsiniz.</li><br><li>İndirmeyi başlatmak için <b>Kılavuzu İndir</b>’e tıklayın.  İndirmenin tamamlanması için açılır pencere engelleyicinizi devre dışı bırakmanız gerekebilir.</li></ol>",
	"instruction": "",
	"_graphic": {
		"alt": "alternatif metin",
		"src": "course/en/images/07_templates/download.png",
		"attribution": ""
	},
	"_pageLevelProgress": {
		"_isEnabled": true
	}
},
{
	"_id": "c-670",
	"_parentId": "b-670",
	"_type": "component",
	"_component": "graphic",
	"_classes": "",
	"_layout": "full",
	"title": "Kanvas Oluşturucu’da şablonları kullanma",
	"displayTitle": "",
	"body": "<h2>Kanvas Oluşturucu’da şablonları kullanma</h2><br>Kanvasınızı Kanvas Oluşturucu’daki şablonları kullanarak da oluşturabilirsiniz.  Bunu yaparsanız, oluşturucu içinde şablonunuzu seçebilir ve önizlemesini görebilirsiniz.<br><br><ol><li>Reklam verme amacınıza veya hedefinize göre kullanmak istediğiniz şablonu seçin.</li><li><b>Şablonu Kullan</b>’a tıklayın.</li></ol>",
	"instruction": "",
	"_graphic": {
		"alt": "alternatif metin",
		"src": "course/en/images/07_templates/use_layout.png",
		"attribution": ""
	},
	"_pageLevelProgress": {
		"_isEnabled": true
	}
},
{
	"_id": "c-671",
	"_parentId": "b-670",
	"_type": "component",
	"_component": "graphic",
	"_classes": "",
	"_layout": "full",
	"title": "",
	"displayTitle": "",
	"body": "Bundan sonra şablondaki bileşenleri kendi kullanımınız için değiştirebilirsiniz.",
	"instruction": "",
	"_graphic": {
		"alt": "alternatif metin",
		"src": "course/en/images/07_templates/modify_use_layout.png",
		"attribution": ""
	},
	"_pageLevelProgress": {
		"_isEnabled": false
	}
},
{
	"_id": "c-680",
	"_parentId": "b-680",
	"_type": "component",
	"_component": "text",
	"_classes": "",
	"_layout": "full",
	"title": "",
	"displayTitle": "",
	"body": "Kanvas oluşturmanın başka bir yöntemini öğrenmek isterseniz lütfen aşağıdan seçim yapın. Diğer durumda Ölçümler modülüne devam edebilirsiniz.<br><br><ul><li><a href='#/id/co-350'>Organik erişim için Kanvas oluşturun</a></li><li><a href='#/id/co-400'>Reklam Yöneticisi’ndeki şablonlarla Kanvas oluşturun</a></li></ul>",
	"instruction": "",
	"_pageLevelProgress": {
		"_isEnabled": true
	}
},
{
	"_id": "c-690",
	"_parentId": "b-690",
	"_type": "component",
	"_component": "co-jump",
	"_classes": "color-test",
	"_preLinkBody": "Şimdi Kanvas’la ilgili son konumuza geçelim:",
	"_linkBody": "Ölçümler",
	"_postLinkBody": ".",
	"_link": "#/id/co-500",
	"_graphic": "adapt/css/assets/icon_nextPage.png",
	"_pageLevelProgress": {
		"_isEnabled": false
	}
},
{
	"_id": "c-700",
	"_parentId": "b-700",
	"_type": "component",
	"_component": "graphic",
	"_classes": "",
	"_layout": "full",
	"title": "Ölçümler",
	"displayTitle": "",
	"body": "Kanvas ile ihtiyacınız olan ölçümlere ulaşır ve insanların içeriğinizle nasıl etkileşimde bulunduğunu görebilirsiniz.<br><br>Bu ölçümleri görmek üzere sütunları seçmek için Reklam Raporları aracında <b>Sütunları Özelleştir</b> kısmına gidin.<br><i>Not:</i> Ölçümlere API üzerinden de erişilebilir.<br><br>Raporlarınızı özelleştirme hakkında daha fazla yardım için Blueprint <b>Reklam Raporları</b> kursuna kaydolmanızı tavsiye ederiz.",
	"instruction": "",
	"_graphic": {
		"alt": "alternatif metin",
		"large": "course/en/images/02_business_objectives/customize_columns.png",
		"small": "course/en/images/02_business_objectives/customize_columns.png",
		"attribution": ""
	},
	"_pageLevelProgress": {
		"_isEnabled": true
	}
},
{
	"_id": "c-710",
	"_parentId": "b-710",
	"_type": "component",
	"_component": "graphic",
	"_classes": "",
	"_layout": "full",
	"title": "Ölçümler",
	"displayTitle": "",
	"body": "“Kanvas: Eylemler” kısmında Kanvas ölçümlerini ve “Etkileşim: Eylemler” kısmında Bağlantı Tıklamalarını seçin.<br><br><ul><li><b>Kanvas Görüntüleme Süresi</b> – Bir Kanvas deneyimi içinde saniye cinsinden geçirilen ortalama süre</li><li><b>Kanvas Görüntüleme Yüzdesi</b> – Kanvasın ortalama olarak görüntülenen yüzdesi.  <i>Not:</i> Buna sadece ilk (kaynak) Kanvas dahildir, Bağlantılı Kanvaslar dahil değildir.</li><li><b>Kanvas Bileşen Süresi Yüzdesi</b> – Kanvas deneyiminin her bir bileşeni görüntülenerek geçirilen ortalama sürenin yüzdesi</li><li><b>Bağlantı Tıklamaları</b> – Kanvas reklamınızın toplam tıklanma sayısı; Kanvası açma tıklamalarını ve site dışı içeriklere tıklamaları da içerir. Bağlantı Tıklaması türlerinin tam kırılımı, Kanvas Bileşeni düzeyindeki raporlar altında mevcuttur. Bu size bağlantı tıklamalarını Kanvas içindeki bileşenlere göre gösterecektir.</li></ul><br><br>Bileşenlere göre sonuçların kırılımını görmek için <b>Kırılım</b> açılır menüsünden <b>Eyleme Göre</b>’yi ve <b>Kanvas Bileşeni</b>’ni seçin.<br><br><i>Not:</i> Kanvas Bileşeni ölçümlerini sadece reklam düzeyinde görebileceğinizi unutmayın.",
	"instruction": "",
	"_graphic": {
		"alt": "alternatif metin",
		"large": "course/en/images/02_business_objectives/new_metrics.png",
		"small": "course/en/images/02_business_objectives/new_metrics.png",
		"attribution": ""
	},
	"_pageLevelProgress": {
		"_isEnabled": false
	}
},
{
	"_id": "c-720",
	"_parentId": "b-720",
	"_type": "component",
	"_component": "text",
	"_classes": "",
	"_layout": "full",
	"title": "Kurs tavsiyeleri",
	"displayTitle": "",
	"body": "Kursun sonuna ulaştınız.  Tavsiye edilen kurslar:<br><br><ul><li><i>Kreatifler İçin En İyi Uygulamalar</i></li><li><i>Mobil Akıştaki Video Kreatifleri İçin İpuçları</i></li><li><i>Video Görüntülemeleri</i></li></ul><br>Ayrıca sunulan diğer reklam çözümleri hakkında bilgi almak için Blueprint kurs kataloğuna dönebilirsiniz.",
	"instruction": "",
	"_pageLevelProgress": {
		"_isEnabled": true
	}
},
{
	"_id": "c-721",
	"_parentId": "b-720",
	"_type": "component",
	"_component": "text",
	"_classes": "",
	"_layout": "full",
	"title": "Facebook Yardım Merkezi bağlantısı",
	"displayTitle": "",
	"body": "Kanvas ünitenizi oluşturma ve sorun giderme konusunda daha detaylı, adım adım talimatlar için lütfen <a href='http://www.facebook.com/business/help/1659484897658040' target='_blank'>Facebook Yardım Merkezi</a>’ni ziyaret edin.<br><br>Kanvasınızı oluşturmaya hazır mısınız?  Öyleyse <a href='https://www.facebook.com/ads/manager/creation' target='_blank'>buradan başlayabilirsiniz</a>.",
	"instruction": "",
	"_pageLevelProgress": {
		"_isEnabled": true
	}
},
{
	"_id": "c-790",
	"_parentId": "b-790",
	"_type": "component",
	"_component": "co-jump",
	"_classes": "color-test",
	"_autoComplete": true,
	"_preLinkBody": "Bu kursu bitirmek için aşağıdaki düğmeye tıklayın. Not: Tüm modüller için durum çubuklarının tamamlandığından emin olmak için <a href='#'>buraya tıklayın</a>.<br>",
	"_linkBody": "<div style = 'text-align:center;padding:8px;'><button class='buttons-action'><b>BU KURSU BİTİRDİM</b></button></div><br> ",
	"_postLinkBody": "",
	"_link": "",
	"_pageLevelProgress": {
		"_isEnabled": false
	}
}]